Practice 4: Advanced Tabular Data Manipulation
…
## [1] "69 patients are taking medication 389221."

Alternatively, we could pivot the df_medications table so that each column corresponds to a medication CODE and each row corresponds to a different patient. In this table, use a value of 1 to indicate that the patient corresponding to the row takes the medication corresponding to the column. Use a value of 0 to indicate that the patient corresponding to the row does not take the medication corresponding to the column.

# TODO: Pivot the 'df_medication' table so that rows correspond to patients and columns correspond to codes
medications_pivot <- df_medication %>%
  select(PATIENT, CODE) %>%
  distinct() %>%
  mutate(value = 1) %>%
  pivot_wider(names_from = CODE, values_from = value, values_fill = 0)

# Display the pivoted medications table
print(medications_pivot)

## # A tibble: 1,107 x 132
##    PATIENT     `389221` `748856` `313782` `562251` `1534809`
##    <chr>          <dbl>    <dbl>    <dbl>    <dbl>     <dbl>
##  1 8d4c4326-e        1        1        0        0         1
##  2 10339b10-3        0        0        1        0         0
##  3 1d604da9-9        0        0        0        1         0
##  4 f5dcd418-0        0        0        1        0         0
##  5 034e9e3b-2        0        0        1        0         0
##  6 72c0b9ce-7        0        0        0        0         0
##  7 b1e9b0b9-d        0        0        1        0         0
##  8 b58731cc-2        0        1        0        0         1
##  9 cfee79fc-d        0        0        0        0         0
## 10 ad2e9916-4        0        0        0        0         0
## #  with 1,097 more rows, and 126 more variables:
## #   978950 <dbl>, 1000126 <dbl>, 849574 <dbl>,
## #   313820 <dbl>, 749762 <dbl>, 748879 <dbl>, 198405 <dbl>,
## #   308182 <dbl>, 311989 <dbl>, 1094107 <dbl>,
## #   310965 <dbl>, 856987 <dbl>, 1043400 <dbl>,
## #   834102 <dbl>, 746030 <dbl>, 751905 <dbl>,
## #   1367439 <dbl>, 748962 <dbl>, 1049630 <dbl>,
## #   310325 <dbl>, 309097 <dbl>, 831533 <dbl>, 310798 <dbl>,
## #   855332 <dbl>, 897718 <dbl>, 197604 <dbl>, 999967 <dbl>,
…
