…
- `read_csv()` requires you to tell it where to find the file you want to read in
  - Windows, e.g.: `"C:\Users\me\Desktop\myfile.csv"`
  - Mac, e.g.: `"/Users/me/Desktop/myfile.csv"`
- If your data is not already in csv format, google "covert X format to csv" or "read X format data in R"
- We'll learn the details of this later, but this is enough to get you started! 
- the `mpg` dataset actually comes pre-loaded with `tidyverse`, so you have it already

Looking at data
===
- `mpg` is now a dataset loaded into R. To look at it, just type

```r
> mpg
# A tibble: 397 x 2
   `18.0   8   307.0      130.0      3504.      12.0 … `chevrolet chevelle mali…
   <chr>                                               <chr>                    
 1 15.0   8   350.0      165.0      3693.      11.5  … buick skylark 320        
 2 18.0   8   318.0      150.0      3436.      11.0  … plymouth satellite       
 3 16.0   8   304.0      150.0      3433.      12.0  … amc rebel sst            
 4 17.0   8   302.0      140.0      3449.      10.5  … ford torino              
 5 15.0   8   429.0      198.0      4341.      10.0  … ford galaxie 500         
 6 14.0   8   454.0      220.0      4354.       9.0  … chevrolet impala         
 7 14.0   8   440.0      215.0      4312.       8.5  … plymouth fury iii        
 8 14.0   8   455.0      225.0      4425.      10.0  … pontiac catalina         
 9 15.0   8   390.0      190.0      3850.       8.5  … amc ambassador dpl       
10 15.0   8   383.0      170.0      3563.      10.0  … dodge challenger se      
# … with 387 more rows
```
…
