R for Data Science
…
Mac, e.g.: "/Users/me/Desktop/myfile.csv"

Internet, e.g.: "http://www.mywebsite.com/myfile.csv"

If your data is not already in csv format, google “covert X format to csv” or “read X format data in R”

We'll learn the details of this later, but this is enough to get you started! 

Looking at data

genes is now a dataset loaded into R. To look at it, just type

genes
# A tibble: 59 x 11
   sampleid   age gender ancestry phenotype FAM50A ERCC2 IFI44 EIF3L  RSAD2
   <chr>    <dbl> <chr>  <chr>    <chr>      <dbl> <dbl> <dbl> <dbl>  <dbl>
 1 GSM3057    70 F      Caucasi SLE         18.6  4.28  18.0 182.    25.5
 2 GSM3057    78 F      Caucasi SLE         20.3  3.02  21.1 157.    37.2
 3 GSM3057    64 F      Caucasi SLE         21.4  4.00 488.  169.   792. 
 4 GSM3057    32 F      Asian    SLE         17.1  4.49  34.0 149.    60.7
 5 GSM3057    33 F      Caucasi SLE         20.9  5.00  34.4 224.    60.8
 6 GSM3057    46 M      Maori    SLE         15.8  3.96 466.  111.  1382. 
 7 GSM3057    45 F      Asian    SLE         18.9  6.04 299.  157.   926. 
 8 GSM3057    67 M      Caucasi SLE         27.6  4.77  21.8 265.    20.6
 9 GSM3057    33 F      Caucasi SLE         15.4  3.88 700.   98.6 1652. 
10 GSM3057    28 F      Caucasi SLE         19.9  7.21 278.  217.   972. 
#  with 49 more rows, and 1 more variable: VAPA <dbl>
…
Similar to an Excel spreadsheet.

One row ~ one
instance of some (real-world) object.

One column ~ one variable, containing the values for the
corresponding instances.

All the values in one column should be of the same type (a number, a category, text, etc.), but
different columns can be of different types.

The Dataset

genes
# A tibble: 59 x 11
   sampleid   age gender ancestry phenotype FAM50A ERCC2 IFI44 EIF3L  RSAD2
   <chr>    <dbl> <chr>  <chr>    <chr>      <dbl> <dbl> <dbl> <dbl>  <dbl>
 1 GSM3057    70 F      Caucasi SLE         18.6  4.28  18.0 182.    25.5
 2 GSM3057    78 F      Caucasi SLE         20.3  3.02  21.1 157.    37.2
 3 GSM3057    64 F      Caucasi SLE         21.4  4.00 488.  169.   792. 
 4 GSM3057    32 F      Asian    SLE         17.1  4.49  34.0 149.    60.7
 5 GSM3057    33 F      Caucasi SLE         20.9  5.00  34.4 224.    60.8
 6 GSM3057    46 M      Maori    SLE         15.8  3.96 466.  111.  1382. 
 7 GSM3057    45 F      Asian    SLE         18.9  6.04 299.  157.   926. 
 8 GSM3057    67 M      Caucasi SLE         27.6  4.77  21.8 265.    20.6
 9 GSM3057    33 F      Caucasi SLE         15.4  3.88 700.   98.6 1652. 
10 GSM3057    28 F      Caucasi SLE         19.9  7.21 278.  217.   972. 
#  with 49 more rows, and 1 more variable: VAPA <dbl>
…
