…
Answer: right tool for the right job
===
Decide how you would tackle the following problems:
- Run a separate regression model for each group in the data, returning coefficients for each variable

```r
> library(broom) # cleans up the output of regression models
> mtcars %>%
+   group_by(cyl) %>%
+   group_map(~lm(mpg~., data=.) %>% 
+               tidy())
# A tibble: 25 x 6
# Groups:   cyl [3]
     cyl term        estimate std.error statistic p.value
   <dbl> <chr>          <dbl>     <dbl>     <dbl>   <dbl>
 1     4 (Intercept)  60.9      180.       0.338    0.793
 2     4 disp         -0.345      0.469   -0.735    0.596
 3     4 hp           -0.0332     0.364   -0.0915   0.942
 4     4 drat         -4.19      46.4     -0.0903   0.943
 5     4 wt            4.48      29.7      0.151    0.905
 6     4 qsec         -0.106      7.82    -0.0136   0.991
 7     4 vs           -3.64      34.0     -0.107    0.932
 8     4 am           -6.33      45.2     -0.140    0.912
 9     4 gear          4.07      29.1      0.140    0.912
10     4 carb          3.22      28.2      0.114    0.928
# … with 15 more rows
```
…
