…
Data frame example
========================================================


```r
> mtc
# A tibble: 32 × 11
     mpg   cyl  disp    hp  drat    wt  qsec    vs    am  gear  carb
   <dbl> <dbl> <dbl> <dbl> <dbl> <dbl> <dbl> <dbl> <dbl> <dbl> <dbl>
 1  21       6  160    110  3.9   2.62  16.5     0     1     4     4
 2  21       6  160    110  3.9   2.88  17.0     0     1     4     4
 3  22.8     4  108     93  3.85  2.32  18.6     1     1     4     1
 4  21.4     6  258    110  3.08  3.22  19.4     1     0     3     1
 5  18.7     8  360    175  3.15  3.44  17.0     0     0     3     2
 6  18.1     6  225    105  2.76  3.46  20.2     1     0     3     1
 7  14.3     8  360    245  3.21  3.57  15.8     0     0     3     4
 8  24.4     4  147.    62  3.69  3.19  20       1     0     4     2
 9  22.8     4  141.    95  3.92  3.15  22.9     1     0     4     2
10  19.2     6  168.   123  3.92  3.44  18.3     1     0     4     4
# … with 22 more rows
```
- This data set contains data on 32 different cars.
- A `tibble` is a kind of data frame. This one has 32 rows and 11 columns.  We only see the first 10 rows because of limited slide/screen space.
- Across the top is the name of each column. The next row shows the type of data in the column. `<dbl>`, means double-precision floating point number, which is a computer science term for any number with a decimal point in it (e.g. `1.3333`, `3.14159`, `1.0`)

Data frame example
========================================================

```r
> mtc
# A tibble: 32 × 11
     mpg   cyl  disp    hp  drat    wt  qsec    vs    am  gear  carb
   <dbl> <dbl> <dbl> <dbl> <dbl> <dbl> <dbl> <dbl> <dbl> <dbl> <dbl>
 1  21       6  160    110  3.9   2.62  16.5     0     1     4     4
 2  21       6  160    110  3.9   2.88  17.0     0     1     4     4
 3  22.8     4  108     93  3.85  2.32  18.6     1     1     4     1
 4  21.4     6  258    110  3.08  3.22  19.4     1     0     3     1
 5  18.7     8  360    175  3.15  3.44  17.0     0     0     3     2
 6  18.1     6  225    105  2.76  3.46  20.2     1     0     3     1
 7  14.3     8  360    245  3.21  3.57  15.8     0     0     3     4
 8  24.4     4  147.    62  3.69  3.19  20       1     0     4     2
 9  22.8     4  141.    95  3.92  3.15  22.9     1     0     4     2
10  19.2     6  168.   123  3.92  3.44  18.3     1     0     4     4
# … with 22 more rows
```
…
```r
> c(1,5,-22,4) > 0
[1]  TRUE  TRUE FALSE  TRUE
```

Logical conjunctions
=========================================================

```r
> filter(mtc, mpg > 30 | mpg < 20)
# A tibble: 22 × 11
     mpg   cyl  disp    hp  drat    wt  qsec    vs    am  gear  carb
   <dbl> <dbl> <dbl> <dbl> <dbl> <dbl> <dbl> <dbl> <dbl> <dbl> <dbl>
 1  18.7     8  360    175  3.15  3.44  17.0     0     0     3     2
 2  18.1     6  225    105  2.76  3.46  20.2     1     0     3     1
 3  14.3     8  360    245  3.21  3.57  15.8     0     0     3     4
 4  19.2     6  168.   123  3.92  3.44  18.3     1     0     4     4
 5  17.8     6  168.   123  3.92  3.44  18.9     1     0     4     4
 6  16.4     8  276.   180  3.07  4.07  17.4     0     0     3     3
 7  17.3     8  276.   180  3.07  3.73  17.6     0     0     3     3
 8  15.2     8  276.   180  3.07  3.78  18       0     0     3     3
 9  10.4     8  472    205  2.93  5.25  18.0     0     0     3     4
10  10.4     8  460    215  3     5.42  17.8     0     0     3     4
# … with 12 more rows
```
…
Logical conjunctions
=========================================================

```r
> filter(mtc, cyl %in% c(6,8)) # equivalent to filter(mtc, cyl==6 | cyl==8)
# A tibble: 21 × 11
     mpg   cyl  disp    hp  drat    wt  qsec    vs    am  gear  carb
   <dbl> <dbl> <dbl> <dbl> <dbl> <dbl> <dbl> <dbl> <dbl> <dbl> <dbl>
 1  21       6  160    110  3.9   2.62  16.5     0     1     4     4
 2  21       6  160    110  3.9   2.88  17.0     0     1     4     4
 3  21.4     6  258    110  3.08  3.22  19.4     1     0     3     1
 4  18.7     8  360    175  3.15  3.44  17.0     0     0     3     2
 5  18.1     6  225    105  2.76  3.46  20.2     1     0     3     1
 6  14.3     8  360    245  3.21  3.57  15.8     0     0     3     4
 7  19.2     6  168.   123  3.92  3.44  18.3     1     0     4     4
 8  17.8     6  168.   123  3.92  3.44  18.9     1     0     4     4
 9  16.4     8  276.   180  3.07  4.07  17.4     0     0     3     3
10  17.3     8  276.   180  3.07  3.73  17.6     0     0     3     3
# … with 11 more rows
```
…
select() subsets columns by name
=========================================================

```r
> select(mtc, mpg, qsec, wt)
# A tibble: 32 × 3
     mpg  qsec    wt
   <dbl> <dbl> <dbl>
 1  21    16.5  2.62
 2  21    17.0  2.88
 3  22.8  18.6  2.32
 4  21.4  19.4  3.22
 5  18.7  17.0  3.44
 6  18.1  20.2  3.46
 7  14.3  15.8  3.57
 8  24.4  20    3.19
 9  22.8  22.9  3.15
10  19.2  18.3  3.44
# … with 22 more rows
```
- The select function will return a subset of the tibble, using only the requested columns in the order specified.

select() subsets columns by name
=========================================================
- `select()` can also be used with handy helpers like `starts_with()` and `contains()`

```r
> select(mtc, starts_with("m"))
# A tibble: 32 × 1
     mpg
   <dbl>
 1  21  
 2  21  
 3  22.8
 4  21.4
 5  18.7
 6  18.1
 7  14.3
 8  24.4
 9  22.8
10  19.2
# … with 22 more rows
```

select() subsets columns by name
=========================================================
- `select()` can also be used with handy helpers like `starts_with()` and `contains()`

```r
> select(mtc, hp, contains("m"))
# A tibble: 32 × 3
      hp   mpg    am
   <dbl> <dbl> <dbl>
 1   110  21       1
 2   110  21       1
 3    93  22.8     1
 4   110  21.4     0
 5   175  18.7     0
 6   105  18.1     0
 7   245  14.3     0
 8    62  24.4     0
 9    95  22.8     0
10   123  19.2     0
# … with 22 more rows
```
- The quotes around the letter `"m"` make it a character string (or string for short). If we did not do this, `R` would think it was looking for a variable called `m` and not just the plain letter. 
- We don't have to quote the names of columns (like `hp`) because the `tidyverse` functions know that we are working within the dataframe and thus treat the column names like they are variables in their own right

select() subsets columns by name
=========================================================
- `select()` can also be used to select everything **except for** certain columns

```r
> select(mtc, -contains("m"), -hp)
# A tibble: 32 × 8
     cyl  disp  drat    wt  qsec    vs  gear  carb
   <dbl> <dbl> <dbl> <dbl> <dbl> <dbl> <dbl> <dbl>
 1     6  160   3.9   2.62  16.5     0     4     4
 2     6  160   3.9   2.88  17.0     0     4     4
 3     4  108   3.85  2.32  18.6     1     4     1
 4     6  258   3.08  3.22  19.4     1     3     1
 5     8  360   3.15  3.44  17.0     0     3     2
 6     6  225   2.76  3.46  20.2     1     3     1
 7     8  360   3.21  3.57  15.8     0     3     4
 8     4  147.  3.69  3.19  20       1     4     2
 9     4  141.  3.92  3.15  22.9     1     4     2
10     6  168.  3.92  3.44  18.3     1     4     4
# … with 22 more rows
```

pull() is a friend of select()
=========================================================
- `select()` has a friend called `pull()` which returns a vector instead of a (one-column) data frame

```r
> select(mtc, hp)
# A tibble: 32 × 1
      hp
   <dbl>
 1   110
 2   110
 3    93
 4   110
 5   175
 6   105
 7   245
 8    62
 9    95
10   123
# … with 22 more rows
…
mutate() creates new columns
================================================================

```r
> mtc_vars_subset = select(mtc, mpg, hp)
> mutate(mtc_vars_subset, gpm = 1/mpg)
# A tibble: 32 × 3
     mpg    hp    gpm
   <dbl> <dbl>  <dbl>
 1  21     110 0.0476
 2  21     110 0.0476
 3  22.8    93 0.0439
 4  21.4   110 0.0467
 5  18.7   175 0.0535
 6  18.1   105 0.0552
 7  14.3   245 0.0699
 8  24.4    62 0.0410
 9  22.8    95 0.0439
10  19.2   123 0.0521
# … with 22 more rows
```
- This uses `mutate` to add a new column to which is the reciprocal of `mpg`.
- The thing on the left of the `=` is a new name that you make up which you would like the new column to be called
- The expresssion on the right of the `=` defines what will go into the new column
-mutate() can create multiple columns at the same time and use multiple columns to define a single new one

mutate() can create multiple new columns at once
================================================================

```r
> mutate(mtc_vars_subset, # the newlines make it more readable
+       gpm = 1/mpg,
+       mpg_hp_ratio = mpg/hp) 
# A tibble: 32 × 4
     mpg    hp    gpm mpg_hp_ratio
   <dbl> <dbl>  <dbl>        <dbl>
 1  21     110 0.0476       0.191 
 2  21     110 0.0476       0.191 
 3  22.8    93 0.0439       0.245 
 4  21.4   110 0.0467       0.195 
 5  18.7   175 0.0535       0.107 
 6  18.1   105 0.0552       0.172 
 7  14.3   245 0.0699       0.0584
 8  24.4    62 0.0410       0.394 
 9  22.8    95 0.0439       0.24  
10  19.2   123 0.0521       0.156 
# … with 22 more rows
```
…
Exercise: even more orange trees
============================================================
- Add a new column called `circum_in` which is the circumference in inches, not in millimeters.


Answer: even more orange trees
=================================================================

```r
> mutate(orange, circum_in = circumference/(10 * 2.54))
# A tibble: 35 × 4
   Tree    age circumference circum_in
   <ord> <dbl>         <dbl>     <dbl>
 1 1       118            30      1.18
 2 1       484            58      2.28
 3 1       664            87      3.43
 4 1      1004           115      4.53
 5 1      1231           120      4.72
 6 1      1372           142      5.59
 7 1      1582           145      5.71
 8 2       118            33      1.30
 9 2       484            69      2.72
10 2       664           111      4.37
# … with 25 more rows
```
…
- `flights` connects to `planes` via a single variable, `tailnum`.
- `flights` connects to `airlines` through the `carrier` variable.
- `flights` connects to `airports` in two ways: via the `origin` and `dest` variables.
- `flights` connects to `weather` via `origin` (the location), and `year`, `month`, `day` and `hour` (the time).

An example join
===
- Imagine we want to add the full airline name to some columns from `flights`

```r
> flights %>%
+   select(tailnum, origin, dest, carrier) %>%
+   inner_join(airlines, by="carrier")
# A tibble: 336,776 × 5
   tailnum origin dest  carrier name                    
   <chr>   <chr>  <chr> <chr>   <chr>                   
 1 N14228  EWR    IAH   UA      United Air Lines Inc.   
 2 N24211  LGA    IAH   UA      United Air Lines Inc.   
 3 N619AA  JFK    MIA   AA      American Airlines Inc.  
 4 N804JB  JFK    BQN   B6      JetBlue Airways         
 5 N668DN  LGA    ATL   DL      Delta Air Lines Inc.    
 6 N39463  EWR    ORD   UA      United Air Lines Inc.   
 7 N516JB  EWR    FLL   B6      JetBlue Airways         
 8 N829AS  LGA    IAD   EV      ExpressJet Airlines Inc.
 9 N593JB  JFK    MCO   B6      JetBlue Airways         
10 N3ALAA  LGA    ORD   AA      American Airlines Inc.  
# … with 336,766 more rows
```
…
```r
> inner_join(airports, flights, by="origin")
Error: Join columns must be present in data.
x Problem with `origin`.
```
- Why does this fail?

Specifying the keys
===
- When keys have different names in different dataframes, the syntax to join is:

```r
> inner_join(airports, flights, by=c("faa"="origin"))
# A tibble: 336,776 × 26
   faa   name      lat   lon   alt    tz dst   tzone   year month   day dep_time
   <chr> <chr>   <dbl> <dbl> <dbl> <dbl> <chr> <chr>  <int> <int> <int>    <int>
 1 EWR   Newark…  40.7 -74.2    18    -5 A     Ameri…  2013     1     1      517
 2 EWR   Newark…  40.7 -74.2    18    -5 A     Ameri…  2013     1     1      554
 3 EWR   Newark…  40.7 -74.2    18    -5 A     Ameri…  2013     1     1      555
 4 EWR   Newark…  40.7 -74.2    18    -5 A     Ameri…  2013     1     1      558
 5 EWR   Newark…  40.7 -74.2    18    -5 A     Ameri…  2013     1     1      559
 6 EWR   Newark…  40.7 -74.2    18    -5 A     Ameri…  2013     1     1      601
 7 EWR   Newark…  40.7 -74.2    18    -5 A     Ameri…  2013     1     1      606
 8 EWR   Newark…  40.7 -74.2    18    -5 A     Ameri…  2013     1     1      607
 9 EWR   Newark…  40.7 -74.2    18    -5 A     Ameri…  2013     1     1      608
10 EWR   Newark…  40.7 -74.2    18    -5 A     Ameri…  2013     1     1      615
# … with 336,766 more rows, and 14 more variables: sched_dep_time <int>,
#   dep_delay <dbl>, arr_time <int>, sched_arr_time <int>, arr_delay <dbl>,
#   carrier <chr>, flight <int>, tailnum <chr>, dest <chr>, air_time <dbl>,
#   distance <dbl>, hour <dbl>, minute <dbl>, time_hour <dttm>
```
…
Answer: finding planes
===
Use joins to find the models of airplane that fly into Seattle Tacoma Intl.

```r
> airports %>%
+   filter(name=="Seattle Tacoma Intl") %>%
+   inner_join(flights, by=c("faa"="dest")) %>%
+   inner_join(planes, by="tailnum") %>%
+   select(model) %>%
+   distinct()
# A tibble: 24 × 1
   model    
   <chr>    
 1 737-890  
 2 737-832  
 3 737-924ER
 4 A320-232 
 5 737-824  
 6 757-231  
 7 757-232  
 8 757-2Q8  
 9 767-332  
10 757-222  
# … with 14 more rows
```
…
