…
```r
x = NA
is.na(x)
[1] TRUE
```

Logical conjunctions
=========================================================

```r
filter(gtex_data, Lung > 6 | Liver < -6)
# A tibble: 73 x 7
   Gene       Ind        Blood Heart  Lung Liver NTissues
   <chr>      <chr>      <dbl> <dbl> <dbl> <dbl>    <dbl>
 1 ACOT12     GTEX-12WSD  5.43  0.53  8.2   0.71        4
 2 ACSL6      GTEX-X261   2.45  1.04  7.03  2.4         4
 3 ADAL       GTEX-1EWIQ  0.69 -0.15  6.28 -0.52        4
 4 AGAP2      GTEX-1GN73  2.32  1.46  6.1   0.89        4
 5 ALDOB      GTEX-12WSD  0.93 -0.42  6.06 -0.08        4
 6 ALOXE3     GTEX-YFC4  -1.32  0.02  7.5  -1.37        4
 7 AP001610.5 GTEX-X4EP  -1.25  3.12  6.59 -0.48        4
 8 APMAP      GTEX-17HGU -0.13 -1.25  0.87 -6.14        4
 9 APOA1      GTEX-12WSD  5.45 NA     7     0.67        3
10 ATF4P3     GTEX-1GN2E  1.85  0.5   6.95  1.03        4
# … with 63 more rows
```
…
Logical conjunctions
=========================================================

```r
filter(gtex_data, NTissues %in% c(1,2)) # equivalent to filter(gtex_data, NTissues==1 | NTissues==2)
# A tibble: 132 x 7
   Gene       Ind        Blood Heart  Lung Liver NTissues
   <chr>      <chr>      <dbl> <dbl> <dbl> <dbl>    <dbl>
 1 AC016757.3 GTEX-131YS  1.43 NA    NA    -0.07        2
 2 ACTG1P1    GTEX-15RJE NA    NA    -0.41 -0.1         2
 3 ACVR2B-AS1 GTEX-1GN73 -0.86 NA    NA     0.46        2
 4 ADAMTSL1   GTEX-1LGRB -0.48 NA    NA    -0.76        2
 5 ADGRF5     GTEX-ZPU1  -0.13 NA    NA    -0.68        2
 6 AOAH       GTEX-11GSP -1.27 NA    NA     0.41        2
 7 ARV1       GTEX-12WSD -1.07 NA    NA     1.27        2
 8 BORCS7     GTEX-X261  NA     0.93 NA     0.11        2
 9 C16orf46   GTEX-ZEX8  -0.95 NA    NA     0.21        2
10 C4orf19    GTEX-ZVT3  -0.88 NA    NA     0.82        2
# … with 122 more rows
```
…
- Create a dataset of all individual-gene pairs with low expression (Z < -3) in blood and heart tissues

Exercise: Low expression
==========================================================
type: prompt

- Create a dataset of all individual-gene pairs with low expression (Z < -3) in blood and heart tissues


```r
filter(gtex_data, Blood < -3, Heart < -3)
# A tibble: 26 x 7
   Gene               Ind        Blood Heart  Lung Liver NTissues
   <chr>              <chr>      <dbl> <dbl> <dbl> <dbl>    <dbl>
 1 ABC7-42389800N19.1 GTEX-14E7W -4.24 -3.29 -3.55 -3.2         4
 2 ALDH9A1            GTEX-11NUK -3.45 -4.78 -4.15 -3.8         4
 3 ARPC3              GTEX-1MJIX -4.21 -3.76 -4.56  2.42        4
 4 ATL3               GTEX-ZF29  -5.07 -4.22 -2.77 -2.82        4
 5 ATP5A1             GTEX-YFC4  -5.35 -6.05 -7.96 -4.4         4
 6 CCDC163            GTEX-1KANB -3.06 -3.05 -0.94  0.48        4
 7 COQ6               GTEX-ZEX8  -4.49 -3.11 -0.19 -0.9         4
 8 CRYL1              GTEX-WFON  -3.77 -6.42 -6.14 -4.11        4
 9 CTPS2              GTEX-1E2YA -3.92 -6.71 -4.06 -1.98        4
10 ENGASE             GTEX-147JS -3.96 -3.17 -3.62 -3.22        4
# … with 16 more rows
```
…
- Create a dataset of all high and low expression instances (Z > 3 or < -3) in any tissue (`?abs` may be helpful)

Exercise: High and low expression events
==========================================================
type: prompt

- Create a dataset of all high and low expression instances (Z > 3 or < -3) in any tissue (`?abs` may be helpful)


```r
filter(gtex_data, abs(Blood) > 3 | abs(Heart) > 3 | abs(Lung) > 3 | abs(Liver) > 3)
# A tibble: 10,171 x 7
   Gene    Ind        Blood Heart  Lung Liver NTissues
   <chr>   <chr>      <dbl> <dbl> <dbl> <dbl>    <dbl>
 1 A2ML1   GTEX-14E7W  0.55 -0.63  3.7   1.6         4
 2 A2ML1   GTEX-1GF9V -0.04  1.44 -0.53  3.65        4
 3 A3GALT2 GTEX-11TUW  0.15 -3.41  0.96 -0.83        4
 4 A3GALT2 GTEX-1BAJH -0.7   0.91  0.16  3.61        4
 5 A3GALT2 GTEX-XBEC   1.03  3.25  0.87  1.51        4
 6 A3GALT2 GTEX-ZF29  -3.61 -2.02 -2.1   0.23        4
 7 A3GALT2 GTEX-ZTPG   0.94  0.5  -1.23  3.22        4
 8 AAMDC   GTEX-12WSG -0.49 -3.38 -2.62 -1.67        4
 9 AAMDC   GTEX-1JMLX  0.65  0.69  0.15  3.43        4
10 AANAT   GTEX-ZTPG   1.02  0.02  0.55  3.78        4
# … with 10,161 more rows
```
…
- Filter out any rows where the value for `Heart` is missing (value is `NA`) 

Exercise: getting rid of NAs
==========================================================
type: prompt

- Filter out any rows where the value for `Heart` is missing (value is `NA`) 


```r
filter(gtex_data, !is.na(Heart))
# A tibble: 383,941 x 7
   Gene  Ind        Blood Heart  Lung Liver NTissues
   <chr> <chr>      <dbl> <dbl> <dbl> <dbl>    <dbl>
 1 A2ML1 GTEX-11DXZ -0.14 -1.08 NA    -0.66        3
 2 A2ML1 GTEX-11GSP -0.5   0.53  0.76 -0.1         4
 3 A2ML1 GTEX-11NUK -0.08 -0.4  -0.26 -0.13        4
 4 A2ML1 GTEX-11NV4 -0.37  0.11 -0.42 -0.61        4
 5 A2ML1 GTEX-11TT1  0.3  -1.11  0.59 -0.12        4
 6 A2ML1 GTEX-11TUW  0.02 -0.47  0.29 -0.66        4
 7 A2ML1 GTEX-11ZUS -1.07 -0.41  0.67  0.06        4
 8 A2ML1 GTEX-11ZVC -0.27 -0.51  0.13 -0.75        4
 9 A2ML1 GTEX-1212Z -0.3   0.53  0.1  -0.48        4
10 A2ML1 GTEX-12696 -0.11  0.24  0.96  0.72        4
# … with 383,931 more rows
```
…
- `sample_frac()` is similar
- Do `?sample_n()` to see how you can sample with replacement or with weights

Sort rows by a column with arrange()
===
type:section

Arrange rows with arrange()
===========================================================
- `arrange()` takes a data frame and a column, and sorts the rows by the values in that column (ascending order).
- Again, the first argument is the data frame and the other arguments tell the function what to do with it

```r
arrange(gtex_data, Blood)
# A tibble: 389,922 x 7
   Gene        Ind        Blood  Heart   Lung Liver NTissues
   <chr>       <chr>      <dbl>  <dbl>  <dbl> <dbl>    <dbl>
 1 HBA2        GTEX-11DXZ -9.44  -1.52  -1.44 -2.15        4
 2 MTATP6P1    GTEX-1KD5A -9.18 -10.1  -10.3  -9.52        4
 3 RP11-46D6.1 GTEX-14E1K -7.83  -3.94  -5.22 -4.49        4
 4 CYTH3       GTEX-11NV4 -6.63  -0.6   -0.37 -1.32        4
 5 TRG-AS1     GTEX-11NV4 -6.47   2.39  -0.6  -0.22        4
 6 SMG1P1      GTEX-11ZUS -6.26  -1.68  -1.41 -0.31        4
 7 ZBTB10      GTEX-VUSG  -6.13   0.77   0.51 -0.67        4
 8 RPS29       GTEX-1B8L1 -5.84  -0.8   -0.46 -0.17        4
 9 GHITM       GTEX-WK11  -5.7   -7.24  -7.37 -4.06        4
10 ZNF2        GTEX-VUSG  -5.62   1.52   0.61  0.13        4
# … with 389,912 more rows
```

Arrange can sort by more than one column
===========================================================
- This is useful if there is a tie in sorting by the first column.


```r
arrange(gtex_data, NTissues, Blood)
# A tibble: 389,922 x 7
   Gene       Ind        Blood Heart  Lung Liver NTissues
   <chr>      <chr>      <dbl> <dbl> <dbl> <dbl>    <dbl>
 1 HEATR1     GTEX-1EWIQ -1.63  NA      NA  0.49        2
 2 FOXO1      GTEX-1BAJH -1.58  NA      NA -0.25        2
 3 UCN        GTEX-12WSI -1.57  NA      NA -0.48        2
 4 GPR171     GTEX-132NY -1.53  NA      NA -1.03        2
 5 UCN        GTEX-WFON  -1.46  NA      NA -0.15        2
 6 KIAA1614   GTEX-12WSI -1.35  NA      NA -0.46        2
 7 ENTPD1-AS1 GTEX-11NUK -1.28  NA      NA -0.54        2
 8 TOP3B      GTEX-1A32A -1.28  NA      NA -0.76        2
 9 AOAH       GTEX-11GSP -1.27  NA      NA  0.41        2
10 PRRX2      GTEX-1A8FM -1.13  -1.2    NA NA           2
# … with 389,912 more rows
```


Use the desc function to arrange by descending values
===========================================================


```r
arrange(gtex_data, desc(Blood))
# A tibble: 389,922 x 7
   Gene       Ind        Blood Heart  Lung Liver NTissues
   <chr>      <chr>      <dbl> <dbl> <dbl> <dbl>    <dbl>
 1 REN        GTEX-U8XE   18.9 -0.57 NA     0.09        3
 2 KLK3       GTEX-147F4  15.7 -0.74 -0.44 -0.02        4
 3 DNASE2B    GTEX-12696  14.4 -0.82 -0.92  0.35        4
 4 GAPDHP33   GTEX-UPK5   13.8  1.52 -1.48 -1.84        4
 5 DCSTAMP    GTEX-12696  13.6 NA    -0.57 -0.91        3
 6 AC012358.7 GTEX-VUSG   13.6 -1.43  1.22 -0.39        4
 7 KCNT1      GTEX-1KANB  13.5  3.14  0.62 -0.37        4
 8 FFAR4      GTEX-12696  12.9 -0.96 -0.67  0.18        4
 9 NAPSA      GTEX-1CB4J  12.3 -0.29 -0.44 -0.14        4
10 DIAPH2-AS1 GTEX-VUSG   12.2 -0.33  1.18  0.67        4
# … with 389,912 more rows
```
…
Select columns with select()
===
type:section

Select columns with select()
=========================================================

```r
select(gtex_data, Gene, Ind, Blood)
# A tibble: 389,922 x 3
   Gene  Ind        Blood
   <chr> <chr>      <dbl>
 1 A2ML1 GTEX-11DXZ -0.14
 2 A2ML1 GTEX-11GSP -0.5 
 3 A2ML1 GTEX-11NUK -0.08
 4 A2ML1 GTEX-11NV4 -0.37
 5 A2ML1 GTEX-11TT1  0.3 
 6 A2ML1 GTEX-11TUW  0.02
 7 A2ML1 GTEX-11ZUS -1.07
 8 A2ML1 GTEX-11ZVC -0.27
 9 A2ML1 GTEX-1212Z -0.3 
10 A2ML1 GTEX-12696 -0.11
# … with 389,912 more rows
```
- The select function will return a subset of the tibble, using only the requested columns in the order specified.

Select columns with select()
=========================================================
- `select()` can also be used with handy helpers like `starts_with()` and `contains()`


```r
select(gtex_data, starts_with("L"))
# A tibble: 389,922 x 2
    Lung Liver
   <dbl> <dbl>
 1 NA    -0.66
 2  0.76 -0.1 
 3 -0.26 -0.13
 4 -0.42 -0.61
 5  0.59 -0.12
 6  0.29 -0.66
 7  0.67  0.06
 8  0.13 -0.75
 9  0.1  -0.48
10  0.96  0.72
# … with 389,912 more rows
```
- Use `?select` to see all the possibilities

Select columns with select()
=========================================================

```r
select(gtex_data, contains("N"))
# A tibble: 389,922 x 4
   Gene  Ind         Lung NTissues
   <chr> <chr>      <dbl>    <dbl>
 1 A2ML1 GTEX-11DXZ NA           3
 2 A2ML1 GTEX-11GSP  0.76        4
 3 A2ML1 GTEX-11NUK -0.26        4
 4 A2ML1 GTEX-11NV4 -0.42        4
 5 A2ML1 GTEX-11TT1  0.59        4
 6 A2ML1 GTEX-11TUW  0.29        4
 7 A2ML1 GTEX-11ZUS  0.67        4
 8 A2ML1 GTEX-11ZVC  0.13        4
 9 A2ML1 GTEX-1212Z  0.1         4
10 A2ML1 GTEX-12696  0.96        4
# … with 389,912 more rows
```
- The quotes around the letter `"N"` make it a string. If we did not do this, `R` would think it was looking for a variable called `N` and not just the plain letter.
- We don't have to quote the names of columns (like `Ind`) because the `tidyverse` functions know that we are working within the dataframe and thus treat the column names like they are variables in their own right

select() subsets columns by name
=========================================================
- `select()` can also be used to select everything **except for** certain columns

```r
select(gtex_data, -starts_with("L"), -Ind)
# A tibble: 389,922 x 4
   Gene  Blood Heart NTissues
   <chr> <dbl> <dbl>    <dbl>
 1 A2ML1 -0.14 -1.08        3
 2 A2ML1 -0.5   0.53        4
 3 A2ML1 -0.08 -0.4         4
 4 A2ML1 -0.37  0.11        4
 5 A2ML1  0.3  -1.11        4
 6 A2ML1  0.02 -0.47        4
 7 A2ML1 -1.07 -0.41        4
 8 A2ML1 -0.27 -0.51        4
 9 A2ML1 -0.3   0.53        4
10 A2ML1 -0.11  0.24        4
# … with 389,912 more rows
```

select() subsets columns by name
=========================================================
- or even to select only columns that match a certain condition


```r
select(gtex_data, where(is.numeric))
# A tibble: 389,922 x 5
   Blood Heart  Lung Liver NTissues
   <dbl> <dbl> <dbl> <dbl>    <dbl>
 1 -0.14 -1.08 NA    -0.66        3
 2 -0.5   0.53  0.76 -0.1         4
 3 -0.08 -0.4  -0.26 -0.13        4
 4 -0.37  0.11 -0.42 -0.61        4
 5  0.3  -1.11  0.59 -0.12        4
 6  0.02 -0.47  0.29 -0.66        4
 7 -1.07 -0.41  0.67  0.06        4
 8 -0.27 -0.51  0.13 -0.75        4
 9 -0.3   0.53  0.1  -0.48        4
10 -0.11  0.24  0.96  0.72        4
# … with 389,912 more rows
```

pull() is a friend of select()
=========================================================
- `select()` has a friend called `pull()` which returns a vector instead of a (one-column) data frame

```r
select(gtex_data, Gene)
# A tibble: 389,922 x 1
   Gene 
   <chr>
 1 A2ML1
 2 A2ML1
 3 A2ML1
 4 A2ML1
 5 A2ML1
 6 A2ML1
 7 A2ML1
 8 A2ML1
 9 A2ML1
10 A2ML1
# … with 389,912 more rows
```
…
Exercise: select text columns
===
type:prompt

- Use select to subset the `gtex_data` dataframe to just those columns that contain text data. 
- Can you do this programmatically without specifying the names of each of the desired columns? 
- Which base R function will help you determine if a column is textual or not? Use whatever tools you want to find out.


```r
select(gtex_data, where(is.character))
# A tibble: 389,922 x 2
   Gene  Ind       
   <chr> <chr>     
 1 A2ML1 GTEX-11DXZ
 2 A2ML1 GTEX-11GSP
 3 A2ML1 GTEX-11NUK
 4 A2ML1 GTEX-11NV4
 5 A2ML1 GTEX-11TT1
 6 A2ML1 GTEX-11TUW
 7 A2ML1 GTEX-11ZUS
 8 A2ML1 GTEX-11ZVC
 9 A2ML1 GTEX-1212Z
10 A2ML1 GTEX-12696
# … with 389,912 more rows
```
…
mutate() can create multiple new columns at once
================================================================
- `mutate()` can create multiple columns at the same time and use multiple columns to define a single new one


```r
mutate(gtex_data, # the newlines make it more readable
      abs_blood = abs(Blood),
      abs_heart = abs(Heart),
      blood_heart_dif = abs_blood - abs_heart
)
# A tibble: 389,922 x 10
   Gene  Ind        Blood Heart  Lung Liver NTissues abs_blood abs_heart
   <chr> <chr>      <dbl> <dbl> <dbl> <dbl>    <dbl>     <dbl>     <dbl>
 1 A2ML1 GTEX-11DXZ -0.14 -1.08 NA    -0.66        3      0.14      1.08
 2 A2ML1 GTEX-11GSP -0.5   0.53  0.76 -0.1         4      0.5       0.53
 3 A2ML1 GTEX-11NUK -0.08 -0.4  -0.26 -0.13        4      0.08      0.4 
 4 A2ML1 GTEX-11NV4 -0.37  0.11 -0.42 -0.61        4      0.37      0.11
 5 A2ML1 GTEX-11TT1  0.3  -1.11  0.59 -0.12        4      0.3       1.11
 6 A2ML1 GTEX-11TUW  0.02 -0.47  0.29 -0.66        4      0.02      0.47
 7 A2ML1 GTEX-11ZUS -1.07 -0.41  0.67  0.06        4      1.07      0.41
 8 A2ML1 GTEX-11ZVC -0.27 -0.51  0.13 -0.75        4      0.27      0.51
 9 A2ML1 GTEX-1212Z -0.3   0.53  0.1  -0.48        4      0.3       0.53
10 A2ML1 GTEX-12696 -0.11  0.24  0.96  0.72        4      0.11      0.24
# … with 389,912 more rows, and 1 more variable: blood_heart_dif <dbl>
```
…
I want to identify genes that have large average expression changes across blood and liver. Can you compute the average of blood and liver expression changes across all gene-individual pairs? Compute the average manually (i.e. don't use the mean function).

Exercise: mutate()
===
type:prompt

I want to identify genes that have large average expression changes across blood and liver. Can you compute the average of blood and liver expression changes across all gene-individual pairs? Compute the average manually (i.e. don't use the mean function).


```r
mutate(gtex_data, avg_blood_liver = (Blood+Liver)/2)
# A tibble: 389,922 x 8
   Gene  Ind        Blood Heart  Lung Liver NTissues avg_blood_liver
   <chr> <chr>      <dbl> <dbl> <dbl> <dbl>    <dbl>           <dbl>
 1 A2ML1 GTEX-11DXZ -0.14 -1.08 NA    -0.66        3          -0.4  
 2 A2ML1 GTEX-11GSP -0.5   0.53  0.76 -0.1         4          -0.3  
 3 A2ML1 GTEX-11NUK -0.08 -0.4  -0.26 -0.13        4          -0.105
 4 A2ML1 GTEX-11NV4 -0.37  0.11 -0.42 -0.61        4          -0.49 
 5 A2ML1 GTEX-11TT1  0.3  -1.11  0.59 -0.12        4           0.09 
 6 A2ML1 GTEX-11TUW  0.02 -0.47  0.29 -0.66        4          -0.32 
 7 A2ML1 GTEX-11ZUS -1.07 -0.41  0.67  0.06        4          -0.505
 8 A2ML1 GTEX-11ZVC -0.27 -0.51  0.13 -0.75        4          -0.51 
 9 A2ML1 GTEX-1212Z -0.3   0.53  0.1  -0.48        4          -0.39 
10 A2ML1 GTEX-12696 -0.11  0.24  0.96  0.72        4           0.305
# … with 389,912 more rows
```
…
Grouped summaries with summarise()
==================================================================
- Summaries are more useful when you apply them to subgoups of the data


```r
gtex_data %>% 
  group_by(Gene) %>%
  summarize(max_blood = max(Blood))
# A tibble: 4,999 x 2
   Gene               max_blood
   <chr>                  <dbl>
 1 A2ML1                   2.08
 2 A3GALT2                 2.77
 3 A4GALT                  2.78
 4 AAMDC                  NA   
 5 AANAT                   1.71
 6 AAR2                    2.52
 7 AARSD1                  1.89
 8 AB019441.29             2.31
 9 ABC7-42389800N19.1      1.98
10 ABCA5                   2.3 
# … with 4,989 more rows
```

- `group_by()` is a helper function that "groups" the data according to the unique values in the column(s) it gets passed. 
- Its output is a grouped data frame that looks the same as the original except for some additional metadata that subsequent functions can use
- `summarize()` works the same as before, except now it returns as many rows as there are groups in the data
- The result also always contains colunmns corresponding to the unique values of the grouping variable

Multiple columns can be used to group the data simultaneously
===================================================================


```r
gtex_data %>% 
  group_by(Gene,Ind) %>%
  summarize(max_blood = max(Blood))
# A tibble: 389,922 x 3
# Groups:   Gene [4,999]
   Gene  Ind        max_blood
   <chr> <chr>          <dbl>
 1 A2ML1 GTEX-11DXZ     -0.14
 2 A2ML1 GTEX-11GSP     -0.5 
 3 A2ML1 GTEX-11NUK     -0.08
 4 A2ML1 GTEX-11NV4     -0.37
 5 A2ML1 GTEX-11TT1      0.3 
 6 A2ML1 GTEX-11TUW      0.02
 7 A2ML1 GTEX-11ZUS     -1.07
 8 A2ML1 GTEX-11ZVC     -0.27
 9 A2ML1 GTEX-1212Z     -0.3 
10 A2ML1 GTEX-12696     -0.11
# … with 389,912 more rows
```

- The result has the summary value for each unique combination of the grouping variables

Computing the number of rows in each group
=====================================================================
- The `n()` function counts the number of rows in each group:


```r
gtex_data %>% 
  filter(!is.na(Blood)) %>%
  group_by(Gene) %>%
  summarize(how_many = n())
# A tibble: 4,999 x 2
   Gene               how_many
   <chr>                 <int>
 1 A2ML1                    78
 2 A3GALT2                  78
 3 A4GALT                   78
 4 AAMDC                    77
 5 AANAT                    78
 6 AAR2                     78
 7 AARSD1                   78
 8 AB019441.29              78
 9 ABC7-42389800N19.1       78
10 ABCA5                    78
# … with 4,989 more rows
```
…
Computing the number of distinct elements in a column, per group
=====================================================================
- `n_distinct()` counts the number of unique elements in a column


```r
gtex_data %>% 
  group_by(Ind) %>%
  summarize(n_genes = n_distinct(Gene))
# A tibble: 78 x 2
   Ind        n_genes
   <chr>        <int>
 1 GTEX-11DXZ    4999
 2 GTEX-11GSP    4999
 3 GTEX-11NUK    4999
 4 GTEX-11NV4    4999
 5 GTEX-11TT1    4999
 6 GTEX-11TUW    4999
 7 GTEX-11ZUS    4999
 8 GTEX-11ZVC    4999
 9 GTEX-1212Z    4999
10 GTEX-12696    4999
# … with 68 more rows
```
…
- Ignoring NAs, what is the highest liver expression value seen for each gene in the `gtex_data` dataset?
- What about the lowest?


```r
gtex_data %>% 
  group_by(Gene) %>%
  summarize(
    max_liver = max(Liver, na.rm=T),
    min_liver = min(Liver, na.rm=T)
  )
# A tibble: 4,999 x 3
   Gene               max_liver min_liver
   <chr>                  <dbl>     <dbl>
 1 A2ML1                   3.65     -1.94
 2 A3GALT2                 3.61     -1.3 
 3 A4GALT                  2.22     -1.76
 4 AAMDC                   3.43     -2.62
 5 AANAT                   3.78     -2.22
 6 AAR2                    2.32     -3.23
 7 AARSD1                  2.77     -2.75
 8 AB019441.29             3.36     -1.53
 9 ABC7-42389800N19.1      2.51     -3.2 
10 ABCA5                   3.27     -3.27
# … with 4,989 more rows
```
…
