…
Our use of `pivot_longer` has so far been to extract a single piece of information from the column name

Multi-pivoting
===
- Turns out this problem can be tackled too:


```r
gtex_samples_time_chunk %>%
  pivot_longer(
    cols=contains("-201"), # selects columns that contain this
    names_pattern = "(\\D+)-(\\d+)", # a "regular expression"- we'll learn about these later
    names_to = c(".value", "year")
  )
# A tibble: 54 × 6
   tissue         year   Sept   Oct   Nov   Dec
   <chr>          <chr> <dbl> <dbl> <dbl> <dbl>
 1 Adipose Tissue 2015      5     4    15     0
 2 Adipose Tissue 2016     36    20    16    15
 3 Adrenal Gland  2015      4     1     2     0
 4 Adrenal Gland  2016      5     5     6     2
 5 Blood          2015      2     6    33    17
 6 Blood          2016      0     0     0     0
 7 Blood Vessel   2015      9     7     9     0
 8 Blood Vessel   2016     24    26    17    12
 9 Brain          2015     12     3    17     0
10 Brain          2016      2     9    24     9
# ℹ 44 more rows
```
…
An example join
===
- Imagine we want to add subject information to the sample data
- We can accomplish that with a **join**:

```r
gtex_sample_data %>% 
  inner_join(gtex_subject_data, by = "subject_id")
# A tibble: 312 × 9
   subject_id sample_id    batch_id center_id tissue rin_score sex   age   death
   <chr>      <chr>        <chr>    <chr>     <chr>      <dbl> <chr> <chr> <chr>
 1 GTEX-11DXZ 0003-SM-58Q… BP-39216 B1        Blood       NA   male  50-59 vent…
 2 GTEX-11DXZ 0126-SM-5EG… BP-44460 B1        Liver        7.9 male  50-59 vent…
 3 GTEX-11DXZ 0326-SM-5EG… BP-44460 B1        Heart        8.3 male  50-59 vent…
 4 GTEX-11DXZ 0726-SM-5N9… BP-43956 B1        Lung         7.8 male  50-59 vent…
 5 GTEX-11GSP 0004-SM-58Q… BP-39412 B1        Blood       NA   fema… 60-69 sudd…
 6 GTEX-11GSP 0626-SM-598… BP-44902 B1        Liver        6.2 fema… 60-69 sudd…
 7 GTEX-11GSP 0726-SM-598… BP-44902 B1        Lung         6.9 fema… 60-69 sudd…
 8 GTEX-11GSP 1226-SM-598… BP-44902 B1        Heart        7.9 fema… 60-69 sudd…
 9 GTEX-11NUK 0004-SM-58Q… BP-39723 B1        Blood       NA   male  50-59 sudd…
10 GTEX-11NUK 0826-SM-5HL… BP-43730 B1        Lung         7.4 male  50-59 sudd…
# ℹ 302 more rows
```
…
