…
Grouped summaries 
==================================================================
- Summaries are more useful when you apply them to subgroups of the data


```r
gtex %>% 
  group_by(Gene) %>%
  summarize(max_blood = max(Blood))
# A tibble: 4,999 × 2
   Gene               max_blood
   <chr>                  <dbl>
 1 A2ML1                   2.08
 2 A3GALT2                 2.77
 3 A4GALT                  2.78
 4 AAMDC                  NA   
 5 AANAT                   1.71
 6 AAR2                    2.52
 7 AARSD1                  1.89
 8 AB019441.29             2.31
 9 ABC7-42389800N19.1      1.98
10 ABCA5                   2.3 
# ℹ 4,989 more rows
```
…
- The result has the summary value for each unique combination of the grouping variables

Computing the number of rows in each group
=====================================================================
- The `n()` function counts the number of rows in each group:


```r
gtex %>% 
  filter(!is.na(Blood)) %>%
  group_by(Gene) %>%
  summarize(how_many = n())
# A tibble: 4,999 × 2
   Gene               how_many
   <chr>                 <int>
 1 A2ML1                    78
 2 A3GALT2                  78
 3 A4GALT                   78
 4 AAMDC                    77
 5 AANAT                    78
 6 AAR2                     78
 7 AARSD1                   78
 8 AB019441.29              78
 9 ABC7-42389800N19.1       78
10 ABCA5                    78
# ℹ 4,989 more rows
```
…
It's helpful to think backwards from the output you want. First outline the ggplot code that would generate the given plot. What does the dataset need to look like that is going into `ggplot` in order to get the plot shown here? How can we get from `gtex_tidy` to that data? 

Filtering grouped data
===

- `filter()` is aware of grouping. When used on a grouped dataset, it applies the filtering condition separately in each group


```r
gtex %>%
  select(Ind, Gene, Lung) %>%
  group_by(Ind) %>%
  filter(Lung == max(Lung, na.rm=T))
# A tibble: 79 × 3
# Groups:   Ind [78]
   Ind        Gene          Lung
   <chr>      <chr>        <dbl>
 1 GTEX-11TUW AC007743.1    4.32
 2 GTEX-147F4 ACRV1         5.4 
 3 GTEX-YFC4  ALOXE3        7.5 
 4 GTEX-ZPU1  ANKDD1B       4.12
 5 GTEX-X4EP  AP001610.5    6.59
 6 GTEX-1GN2E ATF4P3        6.95
 7 GTEX-1LGRB CASP12        3.66
 8 GTEX-1E2YA COLGALT1      6.96
 9 GTEX-17HGU CTAG2         7.4 
10 GTEX-14E1K CTD-2525I3.5  5.9 
# ℹ 69 more rows
```

- This is an extremely convenient idiom for finding the rows that minimize or maximize a condition

Mutating grouped data
===

```r
gtex %>%
  group_by(Gene) %>%
  mutate(rank = rank(-Blood)) %>%
  select(Gene, Ind, rank, Blood) %>%
  filter(rank <= 3) %>%
  arrange(Gene, rank)
# A tibble: 14,867 × 4
# Groups:   Gene [4,999]
   Gene    Ind         rank Blood
   <chr>   <chr>      <dbl> <dbl>
 1 A2ML1   GTEX-1A8FM     1  2.08
 2 A2ML1   GTEX-WY7C      2  1.73
 3 A2ML1   GTEX-ZTPG      3  1.11
 4 A3GALT2 GTEX-1AX9I     1  2.77
 5 A3GALT2 GTEX-14XAO     2  1.54
 6 A3GALT2 GTEX-1B933     3  1.41
 7 A4GALT  GTEX-12696     1  2.78
 8 A4GALT  GTEX-18A6Q     2  2.66
 9 A4GALT  GTEX-11DXZ     3  2.02
10 AAMDC   GTEX-14XAO     1  2.32
# ℹ 14,857 more rows
```
…
- `subject` connects to `sample` via a single variable, `subject_id`.
- `sample` connects to `batch` through the `batch_id` variable.


An example join
===
- Imagine we want to add subject information to the sample data
- We can accomplish that with a **join**:

```r
gtex_samples %>% 
  inner_join(gtex_subjects, by = join_by(subject_id))
# A tibble: 312 × 9
   subject_id sample_id    batch_id center_id tissue rin_score sex   age   death
   <chr>      <chr>        <chr>    <chr>     <chr>      <dbl> <chr> <chr> <chr>
 1 GTEX-11DXZ 0003-SM-58Q… BP-39216 B1        Blood       NA   male  50-59 vent…
 2 GTEX-11DXZ 0126-SM-5EG… BP-44460 B1        Liver        7.9 male  50-59 vent…
 3 GTEX-11DXZ 0326-SM-5EG… BP-44460 B1        Heart        8.3 male  50-59 vent…
 4 GTEX-11DXZ 0726-SM-5N9… BP-43956 B1        Lung         7.8 male  50-59 vent…
 5 GTEX-11GSP 0004-SM-58Q… BP-39412 B1        Blood       NA   fema… 60-69 sudd…
 6 GTEX-11GSP 0626-SM-598… BP-44902 B1        Liver        6.2 fema… 60-69 sudd…
 7 GTEX-11GSP 0726-SM-598… BP-44902 B1        Lung         6.9 fema… 60-69 sudd…
 8 GTEX-11GSP 1226-SM-598… BP-44902 B1        Heart        7.9 fema… 60-69 sudd…
 9 GTEX-11NUK 0004-SM-58Q… BP-39723 B1        Blood       NA   male  50-59 sudd…
10 GTEX-11NUK 0826-SM-5HL… BP-43730 B1        Lung         7.4 male  50-59 sudd…
# ℹ 302 more rows
```
…
