…
```r
factor(months_vec) %>%
  fct_inorder()
[1] Dec Apr Jan Mar
Levels: Dec Apr Jan Mar
```

Example: gss_cat
===
- This is an example data frame loaded by `forcats` that has many factor columns, which are identifiable by the `<fct>` tag
- It’s a sample of data from the General Social Survey, which is a long-running US survey conducted by the independent research organization NORC at the University of Chicago.

```r
gss_cat
# A tibble: 21,483 x 9
    year marital     age race  rincome    partyid     relig     denom    tvhours
   <int> <fct>     <int> <fct> <fct>      <fct>       <fct>     <fct>      <int>
 1  2000 Never ma…    26 White $8000 to … Ind,near r… Protesta… Souther…      12
 2  2000 Divorced     48 White $8000 to … Not str re… Protesta… Baptist…      NA
 3  2000 Widowed      67 White Not appli… Independent Protesta… No deno…       2
 4  2000 Never ma…    39 White Not appli… Ind,near r… Orthodox… Not app…       4
 5  2000 Divorced     25 White Not appli… Not str de… None      Not app…       1
 6  2000 Married      25 White $20000 - … Strong dem… Protesta… Souther…      NA
 7  2000 Never ma…    36 White $25000 or… Not str re… Christian Not app…       3
 8  2000 Divorced     44 White $7000 to … Ind,near d… Protesta… Luthera…      NA
 9  2000 Married      44 White $25000 or… Not str de… Protesta… Other          0
10  2000 Married      47 White $25000 or… Strong rep… Protesta… Souther…       3
# … with 21,473 more rows
```
…
Diagnosing intake errors
===
- Use `readr::problems()` on the returned object to learn more about the errors

```r
problems(challenge)
# A tibble: 1,000 x 5
     row col   expected       actual   file                                     
   <int> <chr> <chr>          <chr>    <chr>                                    
 1  1001 y     1/0/T/F/TRUE/… 2015-01… '/Library/Frameworks/R.framework/Version…
 2  1002 y     1/0/T/F/TRUE/… 2018-05… '/Library/Frameworks/R.framework/Version…
 3  1003 y     1/0/T/F/TRUE/… 2015-09… '/Library/Frameworks/R.framework/Version…
 4  1004 y     1/0/T/F/TRUE/… 2012-11… '/Library/Frameworks/R.framework/Version…
 5  1005 y     1/0/T/F/TRUE/… 2020-01… '/Library/Frameworks/R.framework/Version…
 6  1006 y     1/0/T/F/TRUE/… 2016-04… '/Library/Frameworks/R.framework/Version…
 7  1007 y     1/0/T/F/TRUE/… 2011-05… '/Library/Frameworks/R.framework/Version…
 8  1008 y     1/0/T/F/TRUE/… 2020-07… '/Library/Frameworks/R.framework/Version…
 9  1009 y     1/0/T/F/TRUE/… 2011-04… '/Library/Frameworks/R.framework/Version…
10  1010 y     1/0/T/F/TRUE/… 2010-05… '/Library/Frameworks/R.framework/Version…
# … with 990 more rows
```
…
