…
    reps %>%
      map(gen_file, f, p)
  })
Warning: The `x` argument of `as_tibble.matrix()` must have unique column names if
`.name_repair` is omitted as of tibble 2.0.0.
ℹ Using compatibility `.name_repair`.
This warning is displayed once every 8 hours.
Call `lifecycle::last_lifecycle_warnings()` to see where this warning was
generated.
[[1]]
[[1]][[1]]
# A tibble: 80 × 8
        V1     V2    V3     V4     V5    V6    V7    V8
     <dbl>  <dbl> <dbl>  <dbl>  <dbl> <dbl> <dbl> <dbl>
 1 0.748   0.316  0.410 0.178  0.994  0.892 0.393 0.297
 2 0.119   0.133  0.255 0.152  0.0591 0.191 0.623 0.346
 3 0.167   0.276  0.400 0.249  0.619  0.803 0.893 0.388
 4 0.00486 0.244  0.884 0.823  0.0383 0.490 0.829 0.132
 5 0.0241  0.0120 0.981 0.0260 0.253  0.208 0.144 0.479
 6 0.555   0.514  0.315 0.111  0.561  0.294 0.359 0.534
 7 0.279   0.954  0.943 0.548  0.525  0.356 0.970 0.526
 8 0.920   0.0345 0.978 0.0230 0.960  0.330 0.761 0.249
 9 0.834   0.529  0.149 0.897  0.117  0.868 0.121 0.281
10 0.944   0.0396 0.398 0.925  0.840  0.369 0.685 0.531
# ℹ 70 more rows
…
[[1]][[3]]
# A tibble: 70 × 8
       V1    V2     V3     V4    V5     V6      V7     V8
    <dbl> <dbl>  <dbl>  <dbl> <dbl>  <dbl>   <dbl>  <dbl>
 1 0.532  0.809 0.676  0.750  0.512 0.944  0.264   0.295 
 2 0.0895 0.104 0.197  0.0528 0.743 0.327  0.110   0.0990
 3 0.253  0.293 0.345  0.107  0.669 0.457  0.661   0.561 
 4 0.690  0.116 0.582  0.760  0.393 0.953  0.944   0.911 
 5 0.457  0.577 0.879  0.291  0.308 0.770  0.713   0.244 
 6 0.504  0.299 0.0535 0.517  1.00  0.180  0.00392 0.708 
 7 0.683  0.655 0.191  0.774  0.675 0.469  0.311   0.0978
 8 0.461  0.225 0.0548 0.540  0.539 0.0490 0.190   0.961 
 9 0.201  0.552 0.714  0.0349 0.648 0.634  0.823   0.198 
10 0.0336 0.869 0.863  0.995  0.904 0.834  0.392   0.337 
# ℹ 60 more rows

[[1]][[4]]
# A tibble: 55 × 8
        V1     V2    V3    V4     V5     V6     V7     V8
     <dbl>  <dbl> <dbl> <dbl>  <dbl>  <dbl>  <dbl>  <dbl>
 1 0.571   0.163  0.237 0.625 0.840  0.315  0.591  0.628 
 2 0.154   0.669  0.143 0.821 0.952  0.354  0.400  0.880 
 3 0.718   0.0669 0.992 0.301 0.645  0.373  0.115  0.331 
 4 0.614   0.975  0.329 0.647 0.0299 0.836  0.867  0.183 
 5 0.880   0.336  0.644 0.811 0.144  0.0484 0.851  0.716 
 6 0.975   0.100  0.266 0.830 0.459  0.837  0.0318 0.563 
 7 0.951   0.154  0.939 0.291 0.778  0.690  0.493  0.899 
 8 0.506   0.0662 0.791 0.746 0.499  0.504  0.942  0.556 
 9 0.565   0.266  0.143 0.361 0.300  0.345  0.875  0.0305
10 0.00769 0.250  0.735 0.210 0.334  0.721  0.507  0.897 
# ℹ 45 more rows
…
[[1]][[7]]
# A tibble: 52 × 8
       V1    V2     V3    V4    V5     V6    V7     V8
    <dbl> <dbl>  <dbl> <dbl> <dbl>  <dbl> <dbl>  <dbl>
 1 0.328  0.338 0.210  0.307 0.347 0.0527 0.132 0.528 
 2 0.208  0.390 0.791  0.527 0.542 0.366  0.313 0.862 
 3 0.968  0.991 0.652  0.366 0.559 0.0658 0.379 0.0816
 4 0.167  0.296 0.312  0.854 0.758 0.682  0.879 0.882 
 5 0.728  0.813 0.0282 0.280 0.207 0.864  0.601 0.573 
 6 0.682  0.873 0.965  0.552 0.900 0.594  0.883 0.763 
 7 0.799  0.777 0.755  0.455 0.107 0.0179 0.474 0.281 
 8 0.165  0.987 0.868  0.506 0.610 0.959  0.754 0.726 
 9 0.0712 0.626 0.335  0.693 0.111 0.644  0.245 0.0783
10 0.473  0.555 0.721  0.413 0.247 0.486  0.102 0.369 
# ℹ 42 more rows

[[1]][[8]]
# A tibble: 52 × 8
       V1    V2     V3     V4     V5    V6    V7     V8
    <dbl> <dbl>  <dbl>  <dbl>  <dbl> <dbl> <dbl>  <dbl>
 1 0.548  0.139 0.0748 0.684  0.334  0.119 0.192 0.376 
 2 0.456  0.234 0.0939 0.234  0.450  0.886 0.452 0.885 
 3 0.541  0.928 0.860  0.122  0.576  0.320 0.465 0.705 
 4 0.380  0.934 0.460  0.389  0.886  0.247 0.544 0.918 
 5 0.846  0.689 0.654  0.292  0.892  0.837 0.353 0.105 
 6 0.0842 0.699 0.191  0.585  0.987  0.395 0.743 0.832 
 7 0.133  0.598 0.666  0.930  0.193  0.265 0.506 0.0654
 8 0.0807 0.711 0.0211 0.102  0.571  0.525 0.455 0.657 
 9 0.391  0.632 0.290  0.947  0.0636 0.365 0.817 0.615 
10 0.657  0.276 0.964  0.0904 0.785  0.506 0.485 0.271 
# ℹ 42 more rows

[[1]][[9]]
# A tibble: 39 × 8
      V1     V2    V3    V4     V5    V6     V7     V8
   <dbl>  <dbl> <dbl> <dbl>  <dbl> <dbl>  <dbl>  <dbl>
 1 0.707 0.478  0.845 0.234 0.868  0.230 0.0496 0.213 
 2 0.970 0.323  0.259 0.347 0.550  0.358 0.856  0.489 
 3 0.303 0.648  0.592 0.773 0.886  0.301 0.728  0.616 
 4 0.611 0.266  0.639 0.454 0.215  0.467 0.743  0.176 
 5 0.307 0.0333 0.237 0.169 0.969  0.153 0.339  0.591 
 6 0.256 0.943  0.328 0.777 0.995  0.874 0.823  0.362 
 7 0.774 0.926  0.139 0.297 0.736  0.746 0.386  0.0672
 8 0.629 0.122  0.681 0.456 0.451  0.449 0.608  0.531 
 9 0.779 0.0570 0.208 0.808 0.0466 0.374 0.845  0.428 
10 0.762 0.0502 0.630 0.416 0.765  0.482 0.296  0.792 
# ℹ 29 more rows

[[1]][[10]]
# A tibble: 75 × 8
      V1     V2    V3      V4    V5     V6     V7     V8
   <dbl>  <dbl> <dbl>   <dbl> <dbl>  <dbl>  <dbl>  <dbl>
 1 0.189 0.498  0.486 0.233   0.468 0.834  0.0315 0.712 
 2 0.782 0.0471 0.909 0.425   0.151 0.288  0.413  0.863 
 3 0.304 0.392  0.505 0.384   0.853 0.0958 0.235  0.600 
 4 0.726 0.768  0.418 0.604   0.258 0.258  0.256  0.688 
 5 0.817 0.899  0.462 0.0523  0.797 0.241  0.540  0.978 
 6 0.320 0.826  0.116 0.296   0.846 0.593  0.966  0.938 
 7 0.938 0.996  0.640 0.704   0.308 0.998  0.549  0.0804
 8 0.906 0.575  0.862 0.00559 0.814 0.109  0.510  0.561 
 9 0.484 0.731  0.978 0.459   0.145 0.906  0.950  0.739 
10 0.640 0.440  0.206 0.274   0.155 0.631  0.675  0.232 
# ℹ 65 more rows

[[1]][[11]]
# A tibble: 44 × 8
       V1      V2     V3    V4     V5    V6    V7     V8
    <dbl>   <dbl>  <dbl> <dbl>  <dbl> <dbl> <dbl>  <dbl>
 1 0.520  0.366   0.690  0.106 0.483  0.714 0.332 0.745 
 2 0.563  0.283   0.360  0.286 0.357  0.158 0.826 0.836 
 3 0.864  0.824   0.772  0.787 0.289  0.432 0.557 0.0358
 4 0.725  0.982   0.795  0.329 0.827  0.184 0.236 0.0469
 5 0.420  0.320   0.603  0.883 0.0132 0.860 0.843 0.393 
 6 0.205  0.00434 0.777  0.617 0.692  0.362 0.555 0.747 
 7 0.334  0.456   0.792  0.341 0.943  0.231 0.179 0.107 
 8 0.969  0.132   0.0471 0.922 0.255  0.692 0.949 0.705 
 9 0.334  0.196   0.200  0.769 0.786  0.808 0.986 0.466 
10 0.0299 0.594   0.570  0.925 0.398  0.872 0.219 0.149 
# ℹ 34 more rows

[[1]][[12]]
# A tibble: 73 × 8
       V1     V2    V3     V4         V5    V6      V7     V8
    <dbl>  <dbl> <dbl>  <dbl>      <dbl> <dbl>   <dbl>  <dbl>
 1 0.604  0.136  0.667 0.579  0.390      0.350 0.383   0.655 
 2 0.887  0.861  0.454 0.205  0.950      0.899 0.0958  0.599 
 3 0.0466 0.765  0.720 0.467  0.00000930 0.923 0.232   0.309 
 4 0.819  0.0143 0.889 0.0795 0.378      0.494 0.863   0.0134
 5 0.151  0.949  0.110 0.347  0.588      0.682 0.501   0.854 
 6 0.919  0.724  0.364 0.770  0.941      0.566 0.935   0.409 
 7 0.222  0.228  0.186 0.208  0.576      0.321 0.964   0.962 
 8 0.0283 0.156  0.392 0.426  0.314      0.551 0.386   0.608 
 9 0.387  0.0479 0.772 0.521  0.613      0.534 0.226   0.631 
10 0.104  0.0842 0.894 0.277  0.472      0.791 0.00594 0.371 
# ℹ 63 more rows

[[1]][[13]]
# A tibble: 94 × 8
      V1      V2     V3     V4    V5     V6    V7     V8
   <dbl>   <dbl>  <dbl>  <dbl> <dbl>  <dbl> <dbl>  <dbl>
 1 0.972 0.241   0.0366 0.247  0.886 0.606  0.433 0.303 
 2 0.980 0.00591 0.941  0.195  0.274 0.553  0.241 0.661 
 3 0.897 0.0603  0.989  0.261  0.581 0.185  0.102 0.336 
 4 0.875 0.0779  0.680  0.202  0.989 0.421  0.210 0.0150
 5 0.767 0.441   0.252  0.620  0.392 0.0167 0.761 0.398 
 6 0.361 0.120   0.0693 0.771  0.874 0.0251 0.705 0.231 
 7 0.558 0.186   0.507  0.472  0.179 0.0692 0.355 0.666 
 8 0.442 0.793   0.930  0.625  0.252 0.978  0.870 0.460 
 9 0.485 0.953   0.657  0.0922 0.822 0.350  0.493 0.702 
10 0.669 0.0793  0.111  0.128  0.310 0.611  0.845 0.974 
# ℹ 84 more rows

[[1]][[14]]
# A tibble: 95 × 8
      V1     V2    V3     V4    V5     V6    V7     V8
   <dbl>  <dbl> <dbl>  <dbl> <dbl>  <dbl> <dbl>  <dbl>
 1 0.913 0.813  0.638 0.948  0.863 0.0550 0.179 0.234 
 2 0.304 0.807  0.560 0.372  0.659 0.734  0.469 0.660 
 3 0.813 0.611  0.743 0.416  0.270 0.369  0.411 0.805 
 4 0.799 0.771  0.602 0.260  0.501 0.772  0.968 0.478 
 5 0.749 0.0432 0.323 0.597  0.741 0.595  0.915 0.0431
 6 0.766 0.790  0.958 0.161  0.653 0.0199 0.529 0.361 
 7 0.773 0.244  0.778 0.787  0.841 0.726  0.338 0.626 
 8 0.381 0.847  0.238 0.571  0.760 0.664  0.972 0.979 
 9 0.229 0.541  0.361 0.130  0.426 0.592  0.250 0.815 
10 0.777 0.331  0.229 0.0924 0.839 0.386  0.199 0.594 
# ℹ 85 more rows

[[1]][[15]]
# A tibble: 46 × 8
       V1     V2    V3     V4    V5     V6      V7    V8
    <dbl>  <dbl> <dbl>  <dbl> <dbl>  <dbl>   <dbl> <dbl>
 1 0.150  0.863  0.352 0.908  0.460 0.0323 0.392   0.366
 2 0.768  0.778  0.128 0.0278 0.830 0.784  0.618   0.675
 3 0.0103 0.306  0.366 0.988  0.610 0.532  0.498   0.844
 4 0.202  0.820  0.660 0.675  0.211 0.443  0.437   0.334
 5 0.292  0.892  0.997 0.931  0.731 0.977  0.0513  0.812
 6 0.513  0.356  0.196 0.140  0.983 0.569  0.0933  0.758
 7 0.805  0.819  0.134 0.375  0.965 0.739  0.500   0.914
 8 0.321  0.597  0.803 0.243  0.688 0.192  0.00704 0.802
 9 0.748  0.631  0.602 0.0649 0.406 0.775  0.440   0.661
10 0.310  0.0930 0.536 0.0731 0.791 0.845  0.668   0.466
# ℹ 36 more rows
…
[[1]][[19]]
# A tibble: 40 × 8
       V1     V2     V3    V4     V5    V6     V7     V8
    <dbl>  <dbl>  <dbl> <dbl>  <dbl> <dbl>  <dbl>  <dbl>
 1 0.932  0.950  0.683  0.188 0.0475 0.865 0.135  0.602 
 2 0.717  0.0420 0.687  0.954 0.526  0.353 0.358  0.0710
 3 0.626  0.745  0.396  0.228 0.0239 0.163 0.0275 0.562 
 4 0.592  0.997  0.157  0.523 0.596  0.997 0.187  0.890 
 5 0.844  0.875  0.772  0.116 0.435  0.175 0.268  0.599 
 6 0.801  0.659  0.406  0.285 0.467  0.411 0.956  0.988 
 7 0.829  0.440  0.879  0.338 0.0453 0.974 0.245  0.404 
 8 0.888  0.356  0.0338 0.292 0.655  0.685 0.302  0.788 
 9 0.912  0.690  0.998  0.935 0.626  0.630 0.495  0.454 
10 0.0588 0.0809 0.625  0.250 0.644  0.525 0.450  0.429 
# ℹ 30 more rows

[[1]][[20]]
# A tibble: 31 × 8
       V1    V2      V3    V4      V5     V6     V7     V8
    <dbl> <dbl>   <dbl> <dbl>   <dbl>  <dbl>  <dbl>  <dbl>
 1 0.743  0.134 0.297   0.839 0.296   0.104  0.630  0.0608
 2 0.0369 0.328 0.512   0.477 0.826   0.827  0.727  0.191 
 3 0.266  0.238 0.00731 0.317 0.834   0.614  0.573  0.0626
 4 0.108  0.325 0.0229  0.166 0.858   0.183  0.689  0.659 
 5 0.623  0.288 0.232   0.714 0.915   0.187  0.450  0.611 
 6 0.338  0.823 0.423   0.577 0.188   0.978  0.177  0.742 
 7 0.547  0.467 0.588   0.385 0.219   0.684  0.818  0.0647
 8 0.781  0.445 0.574   0.263 0.865   0.0796 0.0668 0.215 
 9 0.187  0.762 0.570   0.948 0.450   0.558  0.576  0.790 
10 0.514  0.221 0.592   0.425 0.00171 0.836  0.391  0.269 
# ℹ 21 more rows
…
[[1]][[23]]
# A tibble: 47 × 8
       V1     V2     V3     V4      V5     V6      V7     V8
    <dbl>  <dbl>  <dbl>  <dbl>   <dbl>  <dbl>   <dbl>  <dbl>
 1 0.317  0.0285 0.285  0.703  0.00443 0.374  0.819   0.676 
 2 0.738  0.123  0.877  0.541  0.432   0.634  0.303   0.0455
 3 0.167  0.530  0.668  0.0595 0.800   0.630  0.927   0.998 
 4 0.417  0.686  0.124  0.0509 0.675   0.266  0.559   0.319 
 5 0.928  0.798  0.452  0.208  0.0197  0.961  0.774   0.626 
 6 0.411  0.610  0.0835 0.636  0.341   0.918  0.454   0.984 
 7 0.0403 0.497  0.345  0.593  0.644   0.0825 0.731   0.459 
 8 0.0937 0.887  0.703  0.726  0.499   0.837  0.0567  0.160 
 9 0.407  0.863  0.361  0.959  0.243   0.989  0.00831 0.967 
10 0.983  0.0710 0.757  0.272  0.701   0.601  0.288   0.0422
# ℹ 37 more rows

[[1]][[24]]
# A tibble: 80 × 8
      V1     V2    V3     V4     V5     V6     V7     V8
   <dbl>  <dbl> <dbl>  <dbl>  <dbl>  <dbl>  <dbl>  <dbl>
 1 0.606 0.814  0.805 0.0205 0.720  0.317  0.976  0.625 
 2 0.369 0.347  0.726 0.0262 0.635  0.683  0.272  0.283 
 3 0.336 0.822  0.668 0.706  0.743  0.0757 0.515  0.694 
 4 0.126 0.408  0.966 0.430  0.799  0.115  0.0639 0.447 
 5 0.304 0.685  0.644 0.312  0.702  0.942  0.756  0.0827
 6 0.557 0.170  0.326 0.235  0.917  0.979  0.495  0.685 
 7 0.340 0.962  0.278 0.772  0.882  0.112  0.623  0.255 
 8 0.400 0.0159 0.446 0.299  0.0318 0.345  0.942  0.0683
 9 0.536 0.313  0.967 0.107  0.424  0.491  0.0150 0.874 
10 0.527 0.566  0.522 0.159  0.643  0.576  0.710  0.163 
# ℹ 70 more rows
…
[[1]][[26]]
# A tibble: 71 × 8
      V1    V2    V3    V4    V5     V6     V7     V8
   <dbl> <dbl> <dbl> <dbl> <dbl>  <dbl>  <dbl>  <dbl>
 1 0.316 0.441 0.948 0.382 0.993 0.879  0.0922 0.561 
 2 0.682 0.507 0.488 0.241 0.527 0.770  0.0346 0.237 
 3 0.568 0.660 0.865 0.600 0.947 0.0352 0.549  0.379 
 4 0.820 0.115 0.553 0.709 0.973 0.578  0.791  0.0266
 5 0.722 0.111 0.704 0.192 0.117 0.546  0.131  0.644 
 6 0.190 0.527 0.784 0.377 0.693 0.657  0.629  0.175 
 7 0.634 0.878 0.557 0.515 0.829 0.691  0.350  0.852 
 8 0.424 0.425 0.874 0.680 0.737 0.205  0.812  0.494 
 9 0.695 0.679 0.373 0.101 0.629 0.616  0.487  0.837 
10 0.135 0.938 0.485 0.504 0.276 0.447  0.437  0.539 
# ℹ 61 more rows
…
[[1]][[29]]
# A tibble: 76 × 8
        V1    V2     V3    V4     V5    V6     V7    V8
     <dbl> <dbl>  <dbl> <dbl>  <dbl> <dbl>  <dbl> <dbl>
 1 0.184   0.219 0.520  0.507 0.800  0.695 0.489  0.365
 2 0.369   0.924 0.0474 0.220 0.163  0.567 0.873  0.256
 3 0.395   0.178 0.190  0.439 0.0139 0.512 0.968  0.240
 4 0.836   0.480 0.437  0.531 0.822  0.378 0.190  0.815
 5 0.918   0.868 0.422  0.887 0.0455 0.610 0.393  0.153
 6 0.0916  0.961 0.651  0.496 0.504  0.687 0.207  0.924
 7 0.144   0.847 0.938  0.636 0.878  0.938 0.152  0.943
 8 0.0456  0.746 0.352  0.177 0.0475 0.964 0.518  0.627
 9 0.941   0.677 0.585  0.920 0.830  0.325 0.250  0.726
10 0.00425 0.355 0.976  0.334 0.610  0.657 0.0384 0.691
# ℹ 66 more rows

[[1]][[30]]
# A tibble: 64 × 8
      V1      V2     V3    V4    V5    V6    V7     V8
   <dbl>   <dbl>  <dbl> <dbl> <dbl> <dbl> <dbl>  <dbl>
 1 0.436 0.833   0.816  0.691 0.991 0.772 0.635 0.360 
 2 0.331 0.00986 0.743  0.301 0.860 0.618 0.651 0.0685
 3 0.528 0.682   0.105  0.687 0.860 0.777 0.533 0.729 
 4 0.881 0.895   0.144  0.849 0.984 0.651 0.849 0.0515
 5 0.345 0.919   0.0441 0.280 0.681 0.464 0.215 0.328 
 6 0.184 0.741   0.901  0.299 0.251 0.842 0.271 0.138 
 7 0.482 0.378   0.765  0.535 0.178 0.559 0.288 0.195 
 8 0.224 0.551   0.235  0.132 0.518 0.907 0.471 0.541 
 9 0.694 0.772   0.0860 0.987 0.442 0.531 0.403 0.664 
10 0.455 0.189   0.302  0.439 0.415 0.249 0.355 0.996 
# ℹ 54 more rows

[[1]][[31]]
# A tibble: 75 × 8
       V1     V2     V3     V4     V5    V6     V7    V8
    <dbl>  <dbl>  <dbl>  <dbl>  <dbl> <dbl>  <dbl> <dbl>
 1 0.0316 0.361  0.646  0.892  0.439  0.427 0.0192 0.839
 2 0.502  0.174  0.0485 0.769  0.844  0.476 0.0682 0.342
 3 0.474  0.0656 0.783  0.741  0.217  0.863 0.496  0.163
 4 0.406  0.189  0.824  0.549  0.322  0.656 0.986  0.835
 5 0.428  0.755  0.294  0.915  0.606  0.977 0.496  0.324
 6 0.203  0.591  0.176  0.647  0.531  0.951 0.709  0.151
 7 0.925  0.0792 0.183  0.0831 0.0551 0.622 0.699  0.883
 8 0.647  0.320  0.388  0.247  0.772  0.493 0.641  0.155
 9 0.792  0.527  0.664  0.639  0.515  0.825 0.996  0.338
10 0.989  0.933  0.561  0.431  0.789  0.558 0.762  0.653
# ℹ 65 more rows

[[1]][[32]]
# A tibble: 41 × 8
       V1     V2      V3     V4     V5      V6     V7     V8
    <dbl>  <dbl>   <dbl>  <dbl>  <dbl>   <dbl>  <dbl>  <dbl>
 1 0.0945 0.343  0.383   0.520  0.441  0.329   0.891  0.688 
 2 0.945  0.474  0.402   0.975  0.920  0.972   0.279  0.760 
 3 0.336  0.0556 0.160   0.567  0.701  0.292   0.339  0.0579
 4 0.379  0.862  0.142   0.936  0.997  0.00382 0.235  0.956 
 5 0.232  0.876  0.398   0.0523 0.235  0.123   0.667  0.650 
 6 0.146  0.888  0.624   0.769  0.210  0.640   0.970  0.540 
 7 0.339  0.905  0.0234  0.499  0.393  0.122   0.988  0.112 
 8 0.437  0.967  0.171   0.274  0.0816 0.109   0.0921 0.915 
 9 0.952  0.482  0.597   0.0761 0.0293 0.522   0.519  0.698 
10 0.354  0.241  0.00301 0.808  0.670  0.269   0.987  0.0803
# ℹ 31 more rows
…
[[1]][[34]]
# A tibble: 66 × 8
      V1     V2     V3     V4     V5     V6    V7     V8
   <dbl>  <dbl>  <dbl>  <dbl>  <dbl>  <dbl> <dbl>  <dbl>
 1 0.118 0.0386 0.775  0.261  0.543  0.765  0.167 0.892 
 2 0.639 0.916  0.0982 0.232  0.594  0.0860 0.594 0.637 
 3 0.198 0.510  0.318  0.865  0.879  0.222  0.687 0.0645
 4 0.835 0.252  0.341  0.210  0.624  0.659  0.598 0.891 
 5 0.137 0.755  0.633  0.772  0.846  0.138  0.175 0.949 
 6 0.791 0.585  0.305  0.588  0.0760 0.883  0.697 0.267 
 7 0.288 0.721  0.288  0.687  0.322  0.523  0.564 0.679 
 8 0.743 0.782  0.226  0.0464 0.736  0.408  0.853 0.725 
 9 0.284 0.0866 0.617  0.825  0.0437 0.451  0.696 0.399 
10 0.883 0.199  0.407  0.660  0.0463 0.343  0.521 0.991 
# ℹ 56 more rows

[[1]][[35]]
# A tibble: 81 × 8
      V1     V2     V3    V4     V5    V6    V7    V8
   <dbl>  <dbl>  <dbl> <dbl>  <dbl> <dbl> <dbl> <dbl>
 1 0.223 0.246  0.647  0.303 0.734  0.494 0.749 0.994
 2 0.511 0.642  0.889  0.254 0.0316 0.213 0.219 0.177
 3 0.240 0.700  0.0623 0.290 0.204  0.437 0.932 0.375
 4 0.120 0.765  0.956  0.601 0.646  0.254 0.324 0.956
 5 0.207 0.287  0.0387 0.501 0.766  0.474 0.231 0.647
 6 0.276 0.0578 0.485  0.664 0.399  0.194 0.501 0.940
 7 0.770 0.0268 0.685  0.948 0.722  0.413 0.479 0.724
 8 0.299 0.211  0.0733 0.586 0.453  0.530 0.515 0.715
 9 0.688 0.359  0.181  0.758 0.239  0.709 0.885 0.629
10 0.553 0.928  0.607  0.582 0.141  0.849 0.976 0.950
# ℹ 71 more rows

[[1]][[36]]
# A tibble: 81 × 8
      V1    V2     V3    V4     V5     V6     V7    V8
   <dbl> <dbl>  <dbl> <dbl>  <dbl>  <dbl>  <dbl> <dbl>
 1 0.955 0.765 0.937  0.525 0.0369 0.604  0.109  0.131
 2 0.846 0.147 0.598  0.133 0.688  0.784  0.237  0.105
 3 0.833 0.321 0.937  0.771 0.435  0.757  0.218  0.967
 4 0.155 0.345 0.792  0.994 0.847  0.0734 0.689  0.830
 5 0.734 0.984 0.794  0.487 0.759  0.744  0.305  0.181
 6 0.905 0.363 0.246  0.964 0.905  0.357  0.289  0.390
 7 0.420 0.513 0.557  0.993 0.594  0.796  0.0514 0.889
 8 0.982 0.799 0.0928 0.882 0.578  0.523  0.357  0.114
 9 0.129 0.416 0.168  0.982 0.0221 0.890  0.831  0.213
10 0.965 0.861 0.571  0.846 0.715  0.778  0.680  0.587
# ℹ 71 more rows

[[1]][[37]]
# A tibble: 83 × 8
       V1     V2     V3     V4     V5     V6     V7      V8
    <dbl>  <dbl>  <dbl>  <dbl>  <dbl>  <dbl>  <dbl>   <dbl>
 1 0.387  0.0465 0.581  0.375  0.268  0.508  0.830  0.737  
 2 0.200  0.197  0.895  0.612  0.417  0.605  0.856  0.481  
 3 0.119  0.630  0.174  0.191  0.0297 0.771  0.862  0.293  
 4 0.225  0.906  0.416  0.619  0.972  0.226  0.389  0.939  
 5 0.495  0.519  0.578  0.0514 0.185  0.382  0.0704 0.0994 
 6 0.679  0.913  0.0976 0.537  0.842  0.0370 0.461  0.246  
 7 0.153  0.740  0.728  0.402  0.409  0.953  0.942  0.00214
 8 0.197  0.260  0.930  0.321  0.270  0.0984 0.623  0.511  
 9 0.841  0.545  0.0447 0.537  0.877  0.448  0.694  0.313  
10 0.0381 0.236  0.389  0.412  0.0850 0.0970 0.0299 0.666  
# ℹ 73 more rows

[[1]][[38]]
# A tibble: 55 × 8
        V1    V2    V3     V4     V5    V6     V7    V8
     <dbl> <dbl> <dbl>  <dbl>  <dbl> <dbl>  <dbl> <dbl>
 1 0.762   0.573 0.486 0.343  0.272  0.825 0.559  0.544
 2 0.155   0.650 0.273 0.0456 0.345  0.427 0.387  0.457
 3 0.00363 0.520 0.964 0.109  0.0538 0.650 0.256  0.213
 4 0.871   0.339 0.124 0.515  0.319  0.772 0.114  0.317
 5 0.473   0.349 0.369 0.221  0.662  0.394 0.0427 0.393
 6 0.0222  0.309 0.175 0.683  0.486  0.245 0.725  0.308
 7 0.573   0.710 0.729 0.729  0.989  0.252 0.119  0.970
 8 0.382   0.862 0.324 0.168  0.100  0.944 0.489  0.747
 9 0.725   0.201 0.796 0.701  0.929  0.949 0.385  0.970
10 0.0302  0.106 0.898 0.825  0.977  0.415 0.332  0.844
# ℹ 45 more rows
…
