…
Scoped mutate
===
- We can do better by using `mutate_at()`

```r
> flights_fixed = flights %>%
+   mutate_at(vars(arr_time, sched_arr_time, dep_time, sched_dep_time),
+             list(hour = ~ str_sub(., 1, -3) %>% as.numeric(),
+                  min = ~ str_sub(., -2, -1) %>% as.numeric()))
```

```r
> flights_fixed %>% select(ends_with("_hour"), ends_with("_min"), -time_hour)
# A tibble: 336,776 x 8
   arr_time_hour sched_arr_time_… dep_time_hour sched_dep_time_…
           <dbl>            <dbl>         <dbl>            <dbl>
 1             8                8             5                5
 2             8                8             5                5
 3             9                8             5                5
 4            10               10             5                5
 5             8                8             5                6
 6             7                7             5                5
 7             9                8             5                6
 8             7                7             5                6
 9             8                8             5                6
10             7                7             5                6
# … with 336,766 more rows, and 4 more variables: arr_time_min <dbl>,
#   sched_arr_time_min <dbl>, dep_time_min <dbl>, sched_dep_time_min <dbl>
```
…
Scoped mutate
===
- if you only pass in one function and don't name it, `mutate_at()` replaces each variable in `vars()` with the result of applying that function to it
- this code thus translates each character vector to a vector of periods

```r
> flights %>%
+   mutate_at(
+     vars(ends_with("time")),
+     list(~hours(str_sub(., 1, -3) %>% as.numeric()) +
+          minutes(str_sub(., -2, -1) %>% as.numeric())))
# A tibble: 336,776 x 19
    year month   day dep_time  sched_dep_time dep_delay arr_time 
   <int> <int> <int> <S4: Per> <S4: Period>       <dbl> <S4: Per>
 1  2013     1     1 5H 17M 0S 5H 15M 0S              2 8H 30M 0S
 2  2013     1     1 5H 33M 0S 5H 29M 0S              4 8H 50M 0S
 3  2013     1     1 5H 42M 0S 5H 40M 0S              2 9H 23M 0S
 4  2013     1     1 5H 44M 0S 5H 45M 0S             -1 10H 4M 0S
 5  2013     1     1 5H 54M 0S 6H 0M 0S              -6 8H 12M 0S
 6  2013     1     1 5H 54M 0S 5H 58M 0S             -4 7H 40M 0S
 7  2013     1     1 5H 55M 0S 6H 0M 0S              -5 9H 13M 0S
 8  2013     1     1 5H 57M 0S 6H 0M 0S              -3 7H 9M 0S 
 9  2013     1     1 5H 57M 0S 6H 0M 0S              -3 8H 38M 0S
10  2013     1     1 5H 58M 0S 6H 0M 0S              -2 7H 53M 0S
# … with 336,766 more rows, and 12 more variables: sched_arr_time <S4:
#   Period>, arr_delay <dbl>, carrier <chr>, flight <int>, tailnum <chr>,
#   origin <chr>, dest <chr>, air_time <S4: Period>, distance <dbl>,
#   hour <dbl>, minute <dbl>, time_hour <dttm>
```

Scoped mutate
===
- If that function has a single name, you don't need to wrap it in `list` or use the `.`

```r
> flights %>%
+   mutate_at(
+     vars(ends_with("time")),
+     as.character) # same as list(as.character(.))
# A tibble: 336,776 x 19
    year month   day dep_time sched_dep_time dep_delay arr_time
   <int> <int> <int> <chr>    <chr>              <dbl> <chr>   
 1  2013     1     1 517      515                    2 830     
 2  2013     1     1 533      529                    4 850     
 3  2013     1     1 542      540                    2 923     
 4  2013     1     1 544      545                   -1 1004    
 5  2013     1     1 554      600                   -6 812     
 6  2013     1     1 554      558                   -4 740     
 7  2013     1     1 555      600                   -5 913     
 8  2013     1     1 557      600                   -3 709     
 9  2013     1     1 557      600                   -3 838     
10  2013     1     1 558      600                   -2 753     
# … with 336,766 more rows, and 12 more variables: sched_arr_time <chr>,
#   arr_delay <dbl>, carrier <chr>, flight <int>, tailnum <chr>,
#   origin <chr>, dest <chr>, air_time <chr>, distance <dbl>, hour <dbl>,
#   minute <dbl>, time_hour <dttm>
```
…
Exercise: complete cases and variables
===
Using the flights data, pull out a subset of the data that is only rows and columns that have no NAs in them (i.e. if a row has an NA it can't be included, and if a column has an NA in it, it can't be included). Convert any `_time` columns in the result to doubles.

```r
> flights %>%
+   filter_all(all_vars(!is.na(.))) %>%
+   select_if(~all(!is.na(.))) %>%
+   mutate_at(
+     vars(ends_with("_time")),
+     list(~as.double(.)))
# A tibble: 327,346 x 19
    year month   day dep_time sched_dep_time dep_delay arr_time
   <int> <int> <int>    <dbl>          <dbl>     <dbl>    <dbl>
 1  2013     1     1      517            515         2      830
 2  2013     1     1      533            529         4      850
 3  2013     1     1      542            540         2      923
 4  2013     1     1      544            545        -1     1004
 5  2013     1     1      554            600        -6      812
 6  2013     1     1      554            558        -4      740
 7  2013     1     1      555            600        -5      913
 8  2013     1     1      557            600        -3      709
 9  2013     1     1      557            600        -3      838
10  2013     1     1      558            600        -2      753
# … with 327,336 more rows, and 12 more variables: sched_arr_time <dbl>,
#   arr_delay <dbl>, carrier <chr>, flight <int>, tailnum <chr>,
#   origin <chr>, dest <chr>, air_time <dbl>, distance <dbl>, hour <dbl>,
#   minute <dbl>, time_hour <dttm>
```
…
