Data Representation
…
Exercise: coercing a data frame to matrix

> # install.packages(nycflights13)
> library(nycflights13)
> (flights = as_tibble(flights))
# A tibble: 336,776 x 19
    year month   day dep_time sched_dep_time dep_delay arr_time
   <int> <int> <int>    <int>          <int>     <dbl>    <int>
 1  2013     1     1      517            515         2      830
 2  2013     1     1      533            529         4      850
 3  2013     1     1      542            540         2      923
 4  2013     1     1      544            545        -1     1004
 5  2013     1     1      554            600        -6      812
 6  2013     1     1      554            558        -4      740
 7  2013     1     1      555            600        -5      913
 8  2013     1     1      557            600        -3      709
 9  2013     1     1      557            600        -3      838
10  2013     1     1      558            600        -2      753
#  with 336,766 more rows, and 12 more variables: sched_arr_time <int>,
#   arr_delay <dbl>, carrier <chr>, flight <int>, tailnum <chr>,
#   origin <chr>, dest <chr>, air_time <dbl>, distance <dbl>, hour <dbl>,
#   minute <dbl>, time_hour <dttm>
…
Make this data fram for yourself

Write code that returns all of rows with words that contain "tr"

Answer: find rows according to string match

> tibble(
+   word = words, # words is an example string vector loaded by stringr
+   i = seq_along(word) # seq_along(x) is the same as 1:length(x)
+ ) %>%
+   filter(str_detect(word, "tr"))
# A tibble: 26 x 2
   word          i
   <chr>     <int>
 1 centre      136
 2 contract    187
 3 control     188
 4 country     198
 5 district    234
 6 electric    264
 7 extra       295
 8 industry    424
 9 introduce   431
10 straight    811
#  with 16 more rows
…
you can set the order of the levels to be by the order in which they appear in the vector using fct_inorder()

> factor(months_vec) %>%
+   fct_inorder()
[1] Dec Apr Jan Mar
Levels: Dec Apr Jan Mar

Example: gss_cat

This is an example data frame loaded by forcats that has many factor columns, which are identifiable by the <fct> tag

Its a sample of data from the General Social Survey, which is a long-running US survey conducted by the independent research organization NORC at the University of Chicago.

> gss_cat
# A tibble: 21,483 x 9
    year marital     age race  rincome   partyid    relig   denom   tvhours
   <int> <fct>     <int> <fct> <fct>     <fct>      <fct>   <fct>     <int>
 1  2000 Never ma    26 White $8000 to Ind,near  Protes Southe      12
 2  2000 Divorced     48 White $8000 to Not str r Protes Baptis      NA
 3  2000 Widowed      67 White Not appl Independe Protes No den       2
 4  2000 Never ma    39 White Not appl Ind,near  Orthod Not ap       4
 5  2000 Divorced     25 White Not appl Not str d None    Not ap       1
 6  2000 Married      25 White $20000 - Strong de Protes Southe      NA
 7  2000 Never ma    36 White $25000 o Not str r Christ Not ap       3
 8  2000 Divorced     44 White $7000 to Ind,near  Protes Luther      NA
 9  2000 Married      44 White $25000 o Not str d Protes Other         0
10  2000 Married      47 White $25000 o Strong re Protes Southe       3
#  with 21,473 more rows
…
> x <- c(20090101, "2009-01-02", "2009 01 03", "2009-1-4",
+        "2009-1, 5", "Created on 2009 1 6", "200901 !!! 07")
> ymd(x)
[1] "2009-01-01" "2009-01-02" "2009-01-03" "2009-01-04" "2009-01-05"
[6] "2009-01-06" "2009-01-07"

these functions are all pretty smart and detect most common delimitors (-, /, :, etc.), but you should check their input and output with sample data to make sure they are working correctly

Creating dates from components

Sometimes the dates and times you get are split up (usually in columns)

> flights %>% 
+   select(year, month, day, hour, minute)
# A tibble: 336,776 x 5
    year month   day  hour minute
   <int> <int> <int> <dbl>  <dbl>
 1  2013     1     1     5     15
 2  2013     1     1     5     29
 3  2013     1     1     5     40
 4  2013     1     1     5     45
 5  2013     1     1     6      0
 6  2013     1     1     5     58
 7  2013     1     1     6      0
 8  2013     1     1     6      0
 9  2013     1     1     6      0
10  2013     1     1     6      0
#  with 336,766 more rows

Creating dates from components

You can join them into dates or datetimes with make_date() or make_datetime()

> flights %>% 
+   select(year, month, day, hour, minute) %>% 
+   mutate(departure = make_datetime(year, month, day, hour, minute))
# A tibble: 336,776 x 6
    year month   day  hour minute departure          
   <int> <int> <int> <dbl>  <dbl> <dttm>             
 1  2013     1     1     5     15 2013-01-01 05:15:00
 2  2013     1     1     5     29 2013-01-01 05:29:00
 3  2013     1     1     5     40 2013-01-01 05:40:00
 4  2013     1     1     5     45 2013-01-01 05:45:00
 5  2013     1     1     6      0 2013-01-01 06:00:00
 6  2013     1     1     5     58 2013-01-01 05:58:00
 7  2013     1     1     6      0 2013-01-01 06:00:00
 8  2013     1     1     6      0 2013-01-01 06:00:00
 9  2013     1     1     6      0 2013-01-01 06:00:00
10  2013     1     1     6      0 2013-01-01 06:00:00
#  with 336,766 more rows
…
Diagnosing intake errors

Use readr::problems() on the returned object to learn more about the errors

> problems(challenge)
# A tibble: 1,000 x 5
     row col   expected      actual   file                                 
   <int> <chr> <chr>         <chr>    <chr>                                
 1  1001 y     1/0/T/F/TRUE 2015-01 '/Library/Frameworks/R.framework/Ver
 2  1002 y     1/0/T/F/TRUE 2018-05 '/Library/Frameworks/R.framework/Ver
 3  1003 y     1/0/T/F/TRUE 2015-09 '/Library/Frameworks/R.framework/Ver
 4  1004 y     1/0/T/F/TRUE 2012-11 '/Library/Frameworks/R.framework/Ver
 5  1005 y     1/0/T/F/TRUE 2020-01 '/Library/Frameworks/R.framework/Ver
 6  1006 y     1/0/T/F/TRUE 2016-04 '/Library/Frameworks/R.framework/Ver
 7  1007 y     1/0/T/F/TRUE 2011-05 '/Library/Frameworks/R.framework/Ver
 8  1008 y     1/0/T/F/TRUE 2020-07 '/Library/Frameworks/R.framework/Ver
 9  1009 y     1/0/T/F/TRUE 2011-04 '/Library/Frameworks/R.framework/Ver
10  1010 y     1/0/T/F/TRUE 2010-05 '/Library/Frameworks/R.framework/Ver
#  with 990 more rows
…
