…
```r
> mean_age_by = function(df, ...) {
+   df %>%
+     group_by(!!!enquos(...)) %>%
+     summarize(mean = mean(age))
+ }
```


```r
> gss_cat %>% 
+   mean_age_by(partyid, relig)
# A tibble: 125 x 3
# Groups:   partyid [10]
   partyid   relig                    mean
   <fct>     <fct>                   <dbl>
 1 No answer No answer                NA  
 2 No answer Don't know               29  
 3 No answer Inter-nondenominational  39  
 4 No answer Christian                53.6
 5 No answer Orthodox-christian       41  
 6 No answer Moslem/islam             32.8
 7 No answer Hinduism                 33.5
 8 No answer Buddhism                 41.5
 9 No answer Other                    NA  
10 No answer None                     43.4
# … with 115 more rows
```
